<?xml version="1.0" encoding="UTF-8" standalone="no"?>
<!-- Created with Inkscape (http://www.inkscape.org/) -->

<svg
   xmlns:dc="http://purl.org/dc/elements/1.1/"
   xmlns:cc="http://creativecommons.org/ns#"
   xmlns:rdf="http://www.w3.org/1999/02/22-rdf-syntax-ns#"
   xmlns:svg="http://www.w3.org/2000/svg"
   xmlns="http://www.w3.org/2000/svg"
   xmlns:sodipodi="http://sodipodi.sourceforge.net/DTD/sodipodi-0.dtd"
   xmlns:inkscape="http://www.inkscape.org/namespaces/inkscape"
   width="210mm"
   height="144mm"
   viewBox="0 0 210 144"
   version="1.1"
   id="svg3924"
   inkscape:version="0.92.1 r15371"
   sodipodi:docname="comunidad1.svg">
  <defs
     id="defs3918" />
  <sodipodi:namedview
     id="base"
     pagecolor="#ffffff"
     bordercolor="#666666"
     borderopacity="1.0"
     inkscape:pageopacity="0.0"
     inkscape:pageshadow="2"
     inkscape:zoom="1.5695313"
     inkscape:cx="410.84456"
     inkscape:cy="491.39554"
     inkscape:document-units="mm"
     inkscape:current-layer="layer1"
     showgrid="false"
     inkscape:window-width="1920"
     inkscape:window-height="1017"
     inkscape:window-x="-8"
     inkscape:window-y="-8"
     inkscape:window-maximized="1" />
  <metadata
     id="metadata3921">
    <rdf:RDF>
      <cc:Work
         rdf:about="">
        <dc:format>image/svg+xml</dc:format>
        <dc:type
           rdf:resource="http://purl.org/dc/dcmitype/StillImage" />
        <dc:title />
      </cc:Work>
    </rdf:RDF>
  </metadata>
  <g
     inkscape:label="Capa 1"
     inkscape:groupmode="layer"
     id="layer1"
     transform="translate(0,-153)">
    <rect
       style="fill:#3f3d56;stroke-width:0.17735963"
       x="-232.86684"
       y="-141.53235"
       width="28.015892"
       height="0.37777513"
       id="rect26-3-48"
       transform="matrix(-0.94388382,-0.33027765,0.21796418,-0.97595677,0,0)"
       inkscape:transform-center-x="-88.195732"
       inkscape:transform-center-y="28.403285"
       inkscape:export-filename="C:\Users\SOPORTETI\Desktop\Imagenes Crowd\comunidad crowd.png"
       inkscape:export-xdpi="450"
       inkscape:export-ydpi="450" />
    <rect
       style="fill:#3f3d56;stroke-width:0.20794402"
       x="-128.71756"
       y="252.22606"
       width="29.56793"
       height="0.41429517"
       transform="matrix(0.56617694,-0.82428373,0.8505849,0.52583774,0,0)"
       id="rect24-5-9-8"
       inkscape:export-filename="C:\Users\SOPORTETI\Desktop\Imagenes Crowd\comunidad crowd.png"
       inkscape:export-xdpi="450"
       inkscape:export-ydpi="450" />
    <rect
       style="fill:#3f3d56;stroke-width:0.20848684"
       x="-273.66159"
       y="-40.179607"
       width="29.66704"
       height="0.41506964"
       transform="matrix(-0.47812411,-0.87829228,0.81889905,-0.57393759,0,0)"
       id="rect24-5-9-9-6"
       inkscape:export-filename="C:\Users\SOPORTETI\Desktop\Imagenes Crowd\comunidad crowd.png"
       inkscape:export-xdpi="450"
       inkscape:export-ydpi="450" />
    <rect
       style="fill:#3f3d56;stroke-width:0.23959236"
       x="65.223228"
       y="180.4191"
       width="31.341877"
       height="0.48738113"
       transform="matrix(0.98225816,0.18753374,-0.11273544,0.99362504,0,0)"
       id="rect28-1-4"
       inkscape:transform-center-x="9.9532378"
       inkscape:transform-center-y="-101.22258"
       inkscape:export-filename="C:\Users\SOPORTETI\Desktop\Imagenes Crowd\comunidad crowd.png"
       inkscape:export-xdpi="450"
       inkscape:export-ydpi="450" />
    <rect
       style="fill:#3f3d56;stroke-width:0.2393007"
       x="-130.61337"
       y="196.68604"
       width="33.899818"
       height="0.47855118"
       transform="matrix(0.7173984,-0.69666314,0.7173984,0.69666314,0,0)"
       id="rect24-5-98"
       inkscape:export-filename="C:\Users\SOPORTETI\Desktop\Imagenes Crowd\comunidad crowd.png"
       inkscape:export-xdpi="450"
       inkscape:export-ydpi="450" />
    <rect
       style="fill:#3f3d56;stroke-width:0.20811386"
       x="-196.93512"
       y="139.00848"
       width="29.900984"
       height="0.41034999"
       transform="matrix(0.12314922,-0.99238816,0.99881159,0.04873808,0,0)"
       id="rect24-5-9"
       inkscape:export-filename="C:\Users\SOPORTETI\Desktop\Imagenes Crowd\comunidad crowd.png"
       inkscape:export-xdpi="450"
       inkscape:export-ydpi="450" />
    <path
       inkscape:connector-curvature="0"
       style="fill:#3f3d56;stroke-width:0.23924924"
       d="m 45.589941,239.54484 c -0.272303,-0.39162 -0.539999,-0.79362 -0.795687,-1.19492 l 0.41301,-0.24823 c 0.252267,0.39626 0.516385,0.79296 0.785023,1.17932 z"
       id="path6"
       inkscape:export-filename="C:\Users\SOPORTETI\Desktop\Imagenes Crowd\comunidad crowd.png"
       inkscape:export-xdpi="450"
       inkscape:export-ydpi="450" />
    <path
       inkscape:connector-curvature="0"
       style="fill:#3f3d56;stroke-width:0.23924924"
       d="m 110.0504,210.45087 c -0.13002,-0.44875 -0.27136,-0.90106 -0.42013,-1.3444 l 0.46163,-0.1462 c 0.1508,0.44945 0.29411,0.90797 0.42582,1.3628 z"
       id="path10"
       inkscape:export-filename="C:\Users\SOPORTETI\Desktop\Imagenes Crowd\comunidad crowd.png"
       inkscape:export-xdpi="450"
       inkscape:export-ydpi="450" />
    <path
       inkscape:connector-curvature="0"
       style="fill:#3f3d56;stroke-width:0.23924924"
       d="m 187.21376,173.28622 c -0.12994,-0.44873 -0.27028,-0.90173 -0.4168,-1.34666 l 0.46234,-0.14368 c 0.1484,0.45012 0.29041,0.90853 0.42199,1.36256 z"
       id="path16-4"
       inkscape:export-filename="C:\Users\SOPORTETI\Desktop\Imagenes Crowd\comunidad crowd.png"
       inkscape:export-xdpi="450"
       inkscape:export-ydpi="450" />
    <ellipse
       style="fill:#f3a100;stroke-width:0.23924924"
       cx="45.305996"
       cy="244.80817"
       rx="8.0877132"
       ry="0.5890457"
       id="ellipse18"
       inkscape:export-filename="C:\Users\SOPORTETI\Desktop\Imagenes Crowd\comunidad crowd.png"
       inkscape:export-xdpi="450"
       inkscape:export-ydpi="450" />
    <ellipse
       style="fill:#f3a100;stroke-width:0.23924924"
       cx="109.80551"
       cy="216.33762"
       rx="8.0877132"
       ry="0.5890457"
       id="ellipse20"
       inkscape:export-filename="C:\Users\SOPORTETI\Desktop\Imagenes Crowd\comunidad crowd.png"
       inkscape:export-xdpi="450"
       inkscape:export-ydpi="450" />
    <ellipse
       style="fill:#f3a100;stroke-width:0.23924924"
       cx="189.46951"
       cy="186.68895"
       rx="8.0877132"
       ry="0.5890457"
       id="ellipse22"
       inkscape:export-filename="C:\Users\SOPORTETI\Desktop\Imagenes Crowd\comunidad crowd.png"
       inkscape:export-xdpi="450"
       inkscape:export-ydpi="450" />
    <rect
       style="fill:#3f3d56;stroke-width:0.2393007"
       x="-36.680115"
       y="262.41977"
       width="33.899818"
       height="0.47855118"
       transform="matrix(0.7173984,-0.69666314,0.7173984,0.69666314,0,0)"
       id="rect24-5"
       inkscape:export-filename="C:\Users\SOPORTETI\Desktop\Imagenes Crowd\comunidad crowd.png"
       inkscape:export-xdpi="450"
       inkscape:export-ydpi="450" />
    <rect
       style="fill:#3f3d56;stroke-width:0.23925443"
       x="86.18248"
       y="227.69766"
       width="40.869057"
       height="0.47125256"
       id="rect26-3"
       transform="matrix(0.9907399,-0.13577351,0.1265429,0.99196114,0,0)"
       inkscape:export-filename="C:\Users\SOPORTETI\Desktop\Imagenes Crowd\comunidad crowd.png"
       inkscape:export-xdpi="450"
       inkscape:export-ydpi="450" />
    <rect
       style="fill:#3f3d56;stroke-width:0.2393007"
       x="-111.57117"
       y="228.31694"
       width="31.842516"
       height="0.47855118"
       transform="matrix(0.7173984,-0.69666314,0.7173984,0.69666314,0,0)"
       id="rect28-1"
       inkscape:export-filename="C:\Users\SOPORTETI\Desktop\Imagenes Crowd\comunidad crowd.png"
       inkscape:export-xdpi="450"
       inkscape:export-ydpi="450" />
    <rect
       style="fill:#3f3d56;stroke-width:0.23924924"
       x="49.552006"
       y="239.86008"
       width="27.296087"
       height="0.47153267"
       id="rect30-1"
       inkscape:export-filename="C:\Users\SOPORTETI\Desktop\Imagenes Crowd\comunidad crowd.png"
       inkscape:export-xdpi="450"
       inkscape:export-ydpi="450" />
    <rect
       style="fill:#3f3d56;stroke-width:0.2393007"
       x="-182.73628"
       y="203.65573"
       width="37.809353"
       height="0.47855118"
       transform="matrix(0.7173984,-0.69666314,0.7173984,0.69666314,0,0)"
       id="rect32-0"
       inkscape:export-filename="C:\Users\SOPORTETI\Desktop\Imagenes Crowd\comunidad crowd.png"
       inkscape:export-xdpi="450"
       inkscape:export-ydpi="450" />
    <path
       inkscape:connector-curvature="0"
       style="fill:#3f3d56;stroke-width:0.23924924"
       d="m 45.306014,244.45497 a 4.4888894,4.3591452 0 1 1 4.488778,-4.35916 4.4939563,4.3640656 0 0 1 -4.488778,4.35916 z m 0,-8.24675 a 4.003322,3.8876125 0 1 0 4.003215,3.88759 4.0079084,3.8920662 0 0 0 -4.003215,-3.88759 z"
       id="path34-2"
       inkscape:export-filename="C:\Users\SOPORTETI\Desktop\Imagenes Crowd\comunidad crowd.png"
       inkscape:export-xdpi="450"
       inkscape:export-ydpi="450" />
    <path
       inkscape:connector-curvature="0"
       style="fill:#3f3d56;stroke-width:0.23924924"
       d="m 81.094079,244.45497 a 4.4888894,4.3591452 0 1 1 4.48888,-4.35916 4.4938542,4.3639667 0 0 1 -4.48888,4.35916 z m 0,-8.24675 a 4.003322,3.8876125 0 1 0 4.00332,3.88759 4.0078719,3.8920309 0 0 0 -4.00332,-3.88759 z"
       id="path36-7"
       inkscape:export-filename="C:\Users\SOPORTETI\Desktop\Imagenes Crowd\comunidad crowd.png"
       inkscape:export-xdpi="450"
       inkscape:export-ydpi="450" />
    <path
       inkscape:connector-curvature="0"
       style="fill:#3f3d56;stroke-width:0.23924924"
       d="m 109.80548,215.98434 a 4.4888262,4.3590839 0 1 1 4.4889,-4.35915 4.4939247,4.364035 0 0 1 -4.4889,4.35915 z m 0,-8.24664 a 4.0032591,3.8875511 0 1 0 4.00333,3.88751 4.007782,3.8919435 0 0 0 -4.00333,-3.88751 z"
       id="path38"
       inkscape:export-filename="C:\Users\SOPORTETI\Desktop\Imagenes Crowd\comunidad crowd.png"
       inkscape:export-xdpi="450"
       inkscape:export-ydpi="450" />
    <path
       inkscape:connector-curvature="0"
       style="fill:#3f3d56;stroke-width:0.23924924"
       d="m 159.14048,215.98434 a 4.4888262,4.3590839 0 1 1 4.4889,-4.35915 4.4939052,4.3640162 0 0 1 -4.4889,4.35915 z m 0,-8.24664 a 4.0032591,3.8875511 0 1 0 4.00332,3.88751 4.0076777,3.8918422 0 0 0 -4.00332,-3.88751 z"
       id="path40-4"
       inkscape:export-filename="C:\Users\SOPORTETI\Desktop\Imagenes Crowd\comunidad crowd.png"
       inkscape:export-xdpi="450"
       inkscape:export-ydpi="450" />
    <path
       inkscape:connector-curvature="0"
       style="fill:#3f3d56;stroke-width:0.23924924"
       d="m 189.46947,186.33568 a 4.4888262,4.3590839 0 1 1 4.48888,-4.35915 4.4939539,4.3640633 0 0 1 -4.48888,4.35915 z m 0,-8.24664 a 4.0032591,3.8875511 0 1 0 4.0033,3.88751 4.0078719,3.8920309 0 0 0 -4.0033,-3.88753 z"
       id="path42-7"
       inkscape:export-filename="C:\Users\SOPORTETI\Desktop\Imagenes Crowd\comunidad crowd.png"
       inkscape:export-xdpi="450"
       inkscape:export-ydpi="450" />
    <path
       inkscape:connector-curvature="0"
       style="fill:#3f3d56;stroke-width:0.23924924"
       d="m 12.146381,276.65619 a 4.4888894,4.3591452 0 1 1 4.488761,-4.35916 4.4939539,4.3640633 0 0 1 -4.488761,4.35916 z m 0,-8.24675 a 4.003322,3.8876125 0 1 0 4.003181,3.88759 4.007906,3.8920638 0 0 0 -4.003181,-3.88759 z"
       id="path44"
       inkscape:export-filename="C:\Users\SOPORTETI\Desktop\Imagenes Crowd\comunidad crowd.png"
       inkscape:export-xdpi="450"
       inkscape:export-ydpi="450" />
    <ellipse
       style="opacity:1;fill:#00ff00;fill-opacity:0;fill-rule:nonzero;stroke:#000000;stroke-width:0.10590018;stroke-linecap:round;stroke-miterlimit:4;stroke-dasharray:none;stroke-opacity:0"
       id="path3383"
       cx="42.290737"
       cy="239.80536"
       rx="9.1586571"
       ry="10.327179"
       inkscape:export-filename="C:\Users\SOPORTETI\Desktop\Imagenes Crowd\comunidad crowd.png"
       inkscape:export-xdpi="450"
       inkscape:export-ydpi="450" />
    <ellipse
       style="opacity:1;fill:#ffffff;fill-opacity:1;fill-rule:nonzero;stroke:#ffffff;stroke-width:0.10840242;stroke-linecap:round;stroke-miterlimit:4;stroke-dasharray:none;stroke-opacity:1"
       id="path3403"
       cx="45.258251"
       cy="237.92772"
       rx="11.242353"
       ry="12.936851"
       inkscape:export-filename="C:\Users\SOPORTETI\Desktop\Imagenes Crowd\comunidad crowd.png"
       inkscape:export-xdpi="450"
       inkscape:export-ydpi="450" />
    <rect
       style="fill:#a3ca64;fill-opacity:1;stroke-width:0.05109388"
       y="229.21341"
       x="30.807697"
       height="4.1967459"
       width="5.3153439"
       data-name="Rectangle 324"
       id="Rectangle_324-5-2-7-4-0-6-9"
       inkscape:export-filename="C:\Users\SOPORTETI\Desktop\Imagenes Crowd\comunidad crowd.png"
       inkscape:export-xdpi="450"
       inkscape:export-ydpi="450" />
    <rect
       style="fill:#ffffff;stroke-width:0.05109388"
       y="230.33258"
       x="31.472141"
       height="0.27978653"
       width="3.9864955"
       data-name="Rectangle 325"
       id="Rectangle_325-65-8-8-0-7-6-7"
       inkscape:export-filename="C:\Users\SOPORTETI\Desktop\Imagenes Crowd\comunidad crowd.png"
       inkscape:export-xdpi="450"
       inkscape:export-ydpi="450" />
    <rect
       style="fill:#ffffff;stroke-width:0.05109388"
       y="231.17191"
       x="31.472141"
       height="0.27978653"
       width="3.9864955"
       data-name="Rectangle 326"
       id="Rectangle_326-0-6-6-8-1-0-9"
       inkscape:export-filename="C:\Users\SOPORTETI\Desktop\Imagenes Crowd\comunidad crowd.png"
       inkscape:export-xdpi="450"
       inkscape:export-ydpi="450" />
    <rect
       style="fill:#ffffff;stroke-width:0.05109388"
       y="232.01125"
       x="31.472141"
       height="0.27978653"
       width="3.9864955"
       data-name="Rectangle 327"
       id="Rectangle_327-0-9-2-5-5-5-2"
       inkscape:export-filename="C:\Users\SOPORTETI\Desktop\Imagenes Crowd\comunidad crowd.png"
       inkscape:export-xdpi="450"
       inkscape:export-ydpi="450" />
    <path
       inkscape:connector-curvature="0"
       style="fill:#008fa6;fill-opacity:1;stroke-width:0.25430301"
       d="m 45.306014,228.01744 a 8.8225459,9.4239456 0 1 0 8.822519,9.42393 8.8484726,9.4516396 0 0 0 -8.822519,-9.42393 z m 0,2.82717 a 2.6467613,2.8271811 0 1 1 -2.646761,2.82718 2.6556414,2.8366666 0 0 1 2.646761,-2.82718 z m 0,13.61036 a 6.4271541,6.8652692 0 0 1 -5.293522,-3.01749 c 0.04241,-1.88479 3.52898,-2.92233 5.293522,-2.92233 1.764455,0 5.251076,1.03754 5.293522,2.92233 a 6.4378602,6.8767054 0 0 1 -5.293522,3.01749 z"
       id="path86-1-1-3-6-5-1-1"
       inkscape:export-filename="C:\Users\SOPORTETI\Desktop\Imagenes Crowd\comunidad crowd.png"
       inkscape:export-xdpi="450"
       inkscape:export-ydpi="450" />
    <ellipse
       style="opacity:1;fill:#000000;fill-opacity:0;fill-rule:nonzero;stroke:#000000;stroke-width:0.08912661;stroke-linecap:round;stroke-miterlimit:4;stroke-dasharray:none;stroke-opacity:0"
       id="path3381"
       cx="44.763271"
       cy="237.03282"
       rx="11.960907"
       ry="12.305413"
       inkscape:export-filename="C:\Users\SOPORTETI\Desktop\Imagenes Crowd\comunidad crowd.png"
       inkscape:export-xdpi="450"
       inkscape:export-ydpi="450" />
    <ellipse
       style="opacity:1;fill:#ffffff;fill-opacity:1;fill-rule:nonzero;stroke:#ffffff;stroke-width:0.10840242;stroke-linecap:round;stroke-miterlimit:4;stroke-dasharray:none;stroke-opacity:1"
       id="path3403-5-6"
       cx="110.92542"
       cy="212.78528"
       rx="11.242353"
       ry="12.936851"
       inkscape:export-filename="C:\Users\SOPORTETI\Desktop\Imagenes Crowd\comunidad crowd.png"
       inkscape:export-xdpi="450"
       inkscape:export-ydpi="450" />
    <ellipse
       style="opacity:1;fill:#ffffff;fill-opacity:1;fill-rule:nonzero;stroke:#ffffff;stroke-width:0.10840242;stroke-linecap:round;stroke-miterlimit:4;stroke-dasharray:none;stroke-opacity:1"
       id="path3403-5-6-6-0"
       cx="191.48584"
       cy="183.8707"
       rx="11.242353"
       ry="12.936851"
       inkscape:export-filename="C:\Users\SOPORTETI\Desktop\Imagenes Crowd\comunidad crowd.png"
       inkscape:export-xdpi="450"
       inkscape:export-ydpi="450" />
    <rect
       style="fill:#4770cc;fill-opacity:1;stroke-width:0.04938561"
       y="226.8876"
       x="68.941994"
       height="4.1225204"
       width="5.0552688"
       data-name="Rectangle 324"
       id="Rectangle_324-5-2-7-4-8-5-0-6-7-1-3"
       inkscape:export-filename="C:\Users\SOPORTETI\Desktop\Imagenes Crowd\comunidad crowd.png"
       inkscape:export-xdpi="450"
       inkscape:export-ydpi="450" />
    <rect
       style="fill:#ffffff;stroke-width:0.04938561"
       y="227.93031"
       x="69.542206"
       height="0.27483812"
       width="3.7914395"
       data-name="Rectangle 325"
       id="Rectangle_325-65-8-8-0-9-7-1-6-3-5-4"
       inkscape:export-filename="C:\Users\SOPORTETI\Desktop\Imagenes Crowd\comunidad crowd.png"
       inkscape:export-xdpi="450"
       inkscape:export-ydpi="450" />
    <rect
       style="fill:#ffffff;stroke-width:0.04938561"
       y="228.81143"
       x="69.573883"
       height="0.27483812"
       width="3.7914395"
       data-name="Rectangle 326"
       id="Rectangle_326-0-6-6-8-5-9-0-8-0-4-5"
       inkscape:export-filename="C:\Users\SOPORTETI\Desktop\Imagenes Crowd\comunidad crowd.png"
       inkscape:export-xdpi="450"
       inkscape:export-ydpi="450" />
    <rect
       style="fill:#ffffff;stroke-width:0.04938561"
       y="229.63593"
       x="69.573883"
       height="0.27483812"
       width="3.7914395"
       data-name="Rectangle 327"
       id="Rectangle_327-0-9-2-5-0-2-4-9-6-0-7"
       inkscape:export-filename="C:\Users\SOPORTETI\Desktop\Imagenes Crowd\comunidad crowd.png"
       inkscape:export-xdpi="450"
       inkscape:export-ydpi="450" />
    <rect
       style="fill:#3f3d56;stroke-width:0.20794402"
       x="-193.64485"
       y="205.48117"
       width="29.56793"
       height="0.41429517"
       transform="matrix(0.56617694,-0.82428373,0.8505849,0.52583774,0,0)"
       id="rect24-5-9-9"
       inkscape:export-filename="C:\Users\SOPORTETI\Desktop\Imagenes Crowd\comunidad crowd.png"
       inkscape:export-xdpi="450"
       inkscape:export-ydpi="450" />
    <ellipse
       style="opacity:1;fill:#ffffff;fill-opacity:1;fill-rule:nonzero;stroke:#ffffff;stroke-width:0.10840242;stroke-linecap:round;stroke-miterlimit:4;stroke-dasharray:none;stroke-opacity:1"
       id="path3403-5"
       cx="81.604843"
       cy="239.33955"
       rx="11.242353"
       ry="12.936851"
       inkscape:export-filename="C:\Users\SOPORTETI\Desktop\Imagenes Crowd\comunidad crowd.png"
       inkscape:export-xdpi="450"
       inkscape:export-ydpi="450" />
    <path
       inkscape:connector-curvature="0"
       style="fill:#91cfd9;fill-opacity:1;stroke-width:0.24580067"
       d="m 81.882599,227.14893 a 8.3908661,9.2572711 0 1 0 8.39083,9.25726 8.4155243,9.2844748 0 0 0 -8.39083,-9.25726 z m 0,2.77717 a 2.5172575,2.7771786 0 1 1 -2.51728,2.77718 2.525703,2.7864964 0 0 1 2.51728,-2.77719 z m 0,13.36962 a 6.1126788,6.743848 0 0 1 -5.03452,-2.96411 c 0.0403,-1.85145 3.35631,-2.87063 5.03452,-2.87063 1.67811,0 4.99413,1.01918 5.03449,2.87063 a 6.1228609,6.7550816 0 0 1 -5.03449,2.96411 z"
       id="path86-1-17-0-3-0"
       inkscape:export-filename="C:\Users\SOPORTETI\Desktop\Imagenes Crowd\comunidad crowd.png"
       inkscape:export-xdpi="450"
       inkscape:export-ydpi="450" />
    <path
       inkscape:connector-curvature="0"
       style="fill:#3f3d56;stroke-width:0.23924924"
       d="m 110.9004,212.4898 c -0.2723,-0.39162 -0.54,-0.79363 -0.79569,-1.19493 l 0.41301,-0.24822 c 0.25227,0.39625 0.51639,0.79296 0.78503,1.17931 z"
       id="path6-6"
       inkscape:export-filename="C:\Users\SOPORTETI\Desktop\Imagenes Crowd\comunidad crowd.png"
       inkscape:export-xdpi="450"
       inkscape:export-ydpi="450" />
    <ellipse
       style="fill:#f3a100;stroke-width:0.23924924"
       cx="110.61645"
       cy="217.75311"
       rx="8.0877132"
       ry="0.5890457"
       id="ellipse18-6"
       inkscape:export-filename="C:\Users\SOPORTETI\Desktop\Imagenes Crowd\comunidad crowd.png"
       inkscape:export-xdpi="450"
       inkscape:export-ydpi="450" />
    <path
       inkscape:connector-curvature="0"
       style="fill:#3f3d56;stroke-width:0.23924924"
       d="m 110.61647,217.39992 a 4.4888894,4.3591452 0 1 1 4.48878,-4.35915 4.4939563,4.3640656 0 0 1 -4.48878,4.35915 z m 0,-8.24674 a 4.003322,3.8876125 0 1 0 4.00322,3.88759 4.0079084,3.8920662 0 0 0 -4.00322,-3.88759 z"
       id="path34-2-8"
       inkscape:export-filename="C:\Users\SOPORTETI\Desktop\Imagenes Crowd\comunidad crowd.png"
       inkscape:export-xdpi="450"
       inkscape:export-ydpi="450" />
    <ellipse
       style="opacity:1;fill:#00ff00;fill-opacity:0;fill-rule:nonzero;stroke:#000000;stroke-width:0.10590018;stroke-linecap:round;stroke-miterlimit:4;stroke-dasharray:none;stroke-opacity:0"
       id="path3383-2"
       cx="107.60118"
       cy="212.75031"
       rx="9.1586571"
       ry="10.327179"
       inkscape:export-filename="C:\Users\SOPORTETI\Desktop\Imagenes Crowd\comunidad crowd.png"
       inkscape:export-xdpi="450"
       inkscape:export-ydpi="450" />
    <ellipse
       style="opacity:1;fill:#ffffff;fill-opacity:1;fill-rule:nonzero;stroke:#ffffff;stroke-width:0.10840242;stroke-linecap:round;stroke-miterlimit:4;stroke-dasharray:none;stroke-opacity:1"
       id="path3403-3"
       cx="110.5687"
       cy="210.87268"
       rx="11.242353"
       ry="12.936851"
       inkscape:export-filename="C:\Users\SOPORTETI\Desktop\Imagenes Crowd\comunidad crowd.png"
       inkscape:export-xdpi="450"
       inkscape:export-ydpi="450" />
    <rect
       style="fill:#7cb02d;fill-opacity:1;stroke-width:0.05109388"
       y="202.15837"
       x="96.118149"
       height="4.1967459"
       width="5.3153439"
       data-name="Rectangle 324"
       id="Rectangle_324-5-2-7-4-0-6-9-4"
       inkscape:export-filename="C:\Users\SOPORTETI\Desktop\Imagenes Crowd\comunidad crowd.png"
       inkscape:export-xdpi="450"
       inkscape:export-ydpi="450" />
    <rect
       style="fill:#ffffff;stroke-width:0.05109388"
       y="203.27753"
       x="96.782593"
       height="0.27978653"
       width="3.9864955"
       data-name="Rectangle 325"
       id="Rectangle_325-65-8-8-0-7-6-7-5"
       inkscape:export-filename="C:\Users\SOPORTETI\Desktop\Imagenes Crowd\comunidad crowd.png"
       inkscape:export-xdpi="450"
       inkscape:export-ydpi="450" />
    <rect
       style="fill:#ffffff;stroke-width:0.05109388"
       y="204.11687"
       x="96.782593"
       height="0.27978653"
       width="3.9864955"
       data-name="Rectangle 326"
       id="Rectangle_326-0-6-6-8-1-0-9-5"
       inkscape:export-filename="C:\Users\SOPORTETI\Desktop\Imagenes Crowd\comunidad crowd.png"
       inkscape:export-xdpi="450"
       inkscape:export-ydpi="450" />
    <rect
       style="fill:#ffffff;stroke-width:0.05109388"
       y="204.95621"
       x="96.782593"
       height="0.27978653"
       width="3.9864955"
       data-name="Rectangle 327"
       id="Rectangle_327-0-9-2-5-5-5-2-3"
       inkscape:export-filename="C:\Users\SOPORTETI\Desktop\Imagenes Crowd\comunidad crowd.png"
       inkscape:export-xdpi="450"
       inkscape:export-ydpi="450" />
    <path
       inkscape:connector-curvature="0"
       style="fill:#008fa6;fill-opacity:1;stroke-width:0.25430301"
       d="m 110.61647,200.96239 a 8.8225459,9.4239456 0 1 0 8.82252,9.42394 8.8484726,9.4516396 0 0 0 -8.82252,-9.42394 z m 0,2.82717 a 2.6467613,2.8271811 0 1 1 -2.64676,2.82719 2.6556414,2.8366666 0 0 1 2.64676,-2.82719 z m 0,13.61036 a 6.4271541,6.8652692 0 0 1 -5.29352,-3.01748 c 0.0424,-1.88479 3.52898,-2.92234 5.29352,-2.92234 1.76446,0 5.25108,1.03755 5.29352,2.92234 a 6.4378602,6.8767054 0 0 1 -5.29352,3.01748 z"
       id="path86-1-1-3-6-5-1-1-2"
       inkscape:export-filename="C:\Users\SOPORTETI\Desktop\Imagenes Crowd\comunidad crowd.png"
       inkscape:export-xdpi="450"
       inkscape:export-ydpi="450" />
    <ellipse
       style="opacity:1;fill:#000000;fill-opacity:0;fill-rule:nonzero;stroke:#000000;stroke-width:0.08912661;stroke-linecap:round;stroke-miterlimit:4;stroke-dasharray:none;stroke-opacity:0"
       id="path3381-5"
       cx="110.07372"
       cy="209.97777"
       rx="11.960907"
       ry="12.305413"
       inkscape:export-filename="C:\Users\SOPORTETI\Desktop\Imagenes Crowd\comunidad crowd.png"
       inkscape:export-xdpi="450"
       inkscape:export-ydpi="450" />
    <path
       inkscape:connector-curvature="0"
       style="fill:#3f3d56;stroke-width:0.23924924"
       d="m 156.12225,212.49523 a 4.4888894,4.3591452 0 1 1 4.48888,-4.35916 4.4938542,4.3639667 0 0 1 -4.48888,4.35916 z m 0,-8.24676 a 4.003322,3.8876125 0 1 0 4.00331,3.8876 4.0078719,3.8920309 0 0 0 -4.00331,-3.8876 z"
       id="path36-7-0"
       inkscape:export-filename="C:\Users\SOPORTETI\Desktop\Imagenes Crowd\comunidad crowd.png"
       inkscape:export-xdpi="450"
       inkscape:export-ydpi="450" />
    <ellipse
       style="opacity:1;fill:#ffffff;fill-opacity:1;fill-rule:nonzero;stroke:#ffffff;stroke-width:0.10029232;stroke-linecap:round;stroke-miterlimit:4;stroke-dasharray:none;stroke-opacity:1"
       id="path3403-5-4"
       cx="157.0356"
       cy="205.91943"
       rx="10.843759"
       ry="11.480571"
       inkscape:export-filename="C:\Users\SOPORTETI\Desktop\Imagenes Crowd\comunidad crowd.png"
       inkscape:export-xdpi="450"
       inkscape:export-ydpi="450" />
    <rect
       style="fill:#4770cc;fill-opacity:1;stroke-width:0.04938561"
       y="189.08624"
       x="157.65782"
       height="4.1225204"
       width="5.0552688"
       data-name="Rectangle 324"
       id="Rectangle_324-5-2-7-4-8-5-0-6-7-1-3-4"
       inkscape:export-filename="C:\Users\SOPORTETI\Desktop\Imagenes Crowd\comunidad crowd.png"
       inkscape:export-xdpi="450"
       inkscape:export-ydpi="450" />
    <rect
       style="fill:#ffffff;stroke-width:0.04938561"
       y="190.12895"
       x="158.25804"
       height="0.27483812"
       width="3.7914395"
       data-name="Rectangle 325"
       id="Rectangle_325-65-8-8-0-9-7-1-6-3-5-4-8"
       inkscape:export-filename="C:\Users\SOPORTETI\Desktop\Imagenes Crowd\comunidad crowd.png"
       inkscape:export-xdpi="450"
       inkscape:export-ydpi="450" />
    <rect
       style="fill:#ffffff;stroke-width:0.04938561"
       y="191.01009"
       x="158.28973"
       height="0.27483812"
       width="3.7914395"
       data-name="Rectangle 326"
       id="Rectangle_326-0-6-6-8-5-9-0-8-0-4-5-0"
       inkscape:export-filename="C:\Users\SOPORTETI\Desktop\Imagenes Crowd\comunidad crowd.png"
       inkscape:export-xdpi="450"
       inkscape:export-ydpi="450" />
    <rect
       style="fill:#ffffff;stroke-width:0.04938561"
       y="191.83459"
       x="158.28973"
       height="0.27483812"
       width="3.7914395"
       data-name="Rectangle 327"
       id="Rectangle_327-0-9-2-5-0-2-4-9-6-0-7-6"
       inkscape:export-filename="C:\Users\SOPORTETI\Desktop\Imagenes Crowd\comunidad crowd.png"
       inkscape:export-xdpi="450"
       inkscape:export-ydpi="450" />
    <path
       inkscape:connector-curvature="0"
       style="fill:#91cfd9;fill-opacity:1;stroke-width:0.24580067"
       d="m 156.91076,195.18918 a 8.3908661,9.2572711 0 1 0 8.39084,9.25727 8.4155243,9.2844748 0 0 0 -8.39084,-9.25727 z m 0,2.77718 a 2.5172575,2.7771786 0 1 1 -2.51728,2.77717 2.525703,2.7864964 0 0 1 2.51728,-2.77719 z m 0,13.36961 a 6.1126788,6.743848 0 0 1 -5.03452,-2.9641 c 0.0403,-1.85145 3.35632,-2.87064 5.03452,-2.87064 1.67811,0 4.99413,1.01919 5.0345,2.87064 a 6.1228609,6.7550816 0 0 1 -5.0345,2.9641 z"
       id="path86-1-17-0-3-0-5"
       inkscape:export-filename="C:\Users\SOPORTETI\Desktop\Imagenes Crowd\comunidad crowd.png"
       inkscape:export-xdpi="450"
       inkscape:export-ydpi="450" />
    <path
       inkscape:connector-curvature="0"
       style="fill:#3f3d56;stroke-width:0.23924924"
       d="m 189.00214,178.21683 c -0.13003,-0.44875 -0.27136,-0.90106 -0.42013,-1.3444 l 0.46164,-0.1462 c 0.15079,0.44945 0.2941,0.90797 0.42582,1.36279 z"
       id="path10-1"
       inkscape:export-filename="C:\Users\SOPORTETI\Desktop\Imagenes Crowd\comunidad crowd.png"
       inkscape:export-xdpi="450"
       inkscape:export-ydpi="450" />
    <ellipse
       style="fill:#f3a100;stroke-width:0.23924924"
       cx="188.75726"
       cy="184.10361"
       rx="8.0877132"
       ry="0.5890457"
       id="ellipse20-5"
       inkscape:export-filename="C:\Users\SOPORTETI\Desktop\Imagenes Crowd\comunidad crowd.png"
       inkscape:export-xdpi="450"
       inkscape:export-ydpi="450" />
    <path
       inkscape:connector-curvature="0"
       style="fill:#3f3d56;stroke-width:0.23924924"
       d="m 188.75722,183.7503 a 4.4888262,4.3590839 0 1 1 4.4889,-4.35915 4.4939247,4.364035 0 0 1 -4.4889,4.35915 z m 0,-8.24664 a 4.0032591,3.8875511 0 1 0 4.00334,3.88751 4.007782,3.8919435 0 0 0 -4.00334,-3.88751 z"
       id="path38-9"
       inkscape:export-filename="C:\Users\SOPORTETI\Desktop\Imagenes Crowd\comunidad crowd.png"
       inkscape:export-xdpi="450"
       inkscape:export-ydpi="450" />
    <ellipse
       style="opacity:1;fill:#ffffff;fill-opacity:1;fill-rule:nonzero;stroke:#ffffff;stroke-width:0.10840242;stroke-linecap:round;stroke-miterlimit:4;stroke-dasharray:none;stroke-opacity:1"
       id="path3403-5-6-66"
       cx="189.87715"
       cy="180.55128"
       rx="11.242353"
       ry="12.936851"
       inkscape:export-filename="C:\Users\SOPORTETI\Desktop\Imagenes Crowd\comunidad crowd.png"
       inkscape:export-xdpi="450"
       inkscape:export-ydpi="450" />
    <path
       inkscape:connector-curvature="0"
       style="fill:#3f3d56;stroke-width:0.23924924"
       d="m 189.85214,180.25576 c -0.2723,-0.39162 -0.54,-0.79363 -0.79568,-1.19493 l 0.41301,-0.24822 c 0.25227,0.39625 0.51638,0.79295 0.78502,1.17931 z"
       id="path6-6-7"
       inkscape:export-filename="C:\Users\SOPORTETI\Desktop\Imagenes Crowd\comunidad crowd.png"
       inkscape:export-xdpi="450"
       inkscape:export-ydpi="450" />
    <ellipse
       style="fill:#f3a100;stroke-width:0.23924924"
       cx="189.56819"
       cy="185.51912"
       rx="8.0877132"
       ry="0.5890457"
       id="ellipse18-6-7"
       inkscape:export-filename="C:\Users\SOPORTETI\Desktop\Imagenes Crowd\comunidad crowd.png"
       inkscape:export-xdpi="450"
       inkscape:export-ydpi="450" />
    <path
       inkscape:connector-curvature="0"
       style="fill:#3f3d56;stroke-width:0.23924924"
       d="m 189.56822,185.16588 a 4.4888894,4.3591452 0 1 1 4.48877,-4.35915 4.4939563,4.3640656 0 0 1 -4.48877,4.35915 z m 0,-8.24675 a 4.003322,3.8876125 0 1 0 4.00321,3.8876 4.0079084,3.8920662 0 0 0 -4.00321,-3.8876 z"
       id="path34-2-8-2"
       inkscape:export-filename="C:\Users\SOPORTETI\Desktop\Imagenes Crowd\comunidad crowd.png"
       inkscape:export-xdpi="450"
       inkscape:export-ydpi="450" />
    <ellipse
       style="opacity:1;fill:#00ff00;fill-opacity:0;fill-rule:nonzero;stroke:#000000;stroke-width:0.10590018;stroke-linecap:round;stroke-miterlimit:4;stroke-dasharray:none;stroke-opacity:0"
       id="path3383-2-8"
       cx="186.55293"
       cy="180.51631"
       rx="9.1586571"
       ry="10.327179"
       inkscape:export-filename="C:\Users\SOPORTETI\Desktop\Imagenes Crowd\comunidad crowd.png"
       inkscape:export-xdpi="450"
       inkscape:export-ydpi="450" />
    <ellipse
       style="opacity:1;fill:#ffffff;fill-opacity:1;fill-rule:nonzero;stroke:#ffffff;stroke-width:0.10840242;stroke-linecap:round;stroke-miterlimit:4;stroke-dasharray:none;stroke-opacity:1"
       id="path3403-3-1"
       cx="189.52046"
       cy="178.63867"
       rx="11.242353"
       ry="12.936851"
       inkscape:export-filename="C:\Users\SOPORTETI\Desktop\Imagenes Crowd\comunidad crowd.png"
       inkscape:export-xdpi="450"
       inkscape:export-ydpi="450" />
    <rect
       style="fill:#7cb02d;fill-opacity:1;stroke-width:0.05109388"
       y="169.92436"
       x="175.06989"
       height="4.1967459"
       width="5.3153439"
       data-name="Rectangle 324"
       id="Rectangle_324-5-2-7-4-0-6-9-4-9"
       inkscape:export-filename="C:\Users\SOPORTETI\Desktop\Imagenes Crowd\comunidad crowd.png"
       inkscape:export-xdpi="450"
       inkscape:export-ydpi="450" />
    <rect
       style="fill:#ffffff;stroke-width:0.05109388"
       y="171.04352"
       x="175.73434"
       height="0.27978653"
       width="3.9864955"
       data-name="Rectangle 325"
       id="Rectangle_325-65-8-8-0-7-6-7-5-8"
       inkscape:export-filename="C:\Users\SOPORTETI\Desktop\Imagenes Crowd\comunidad crowd.png"
       inkscape:export-xdpi="450"
       inkscape:export-ydpi="450" />
    <rect
       style="fill:#ffffff;stroke-width:0.05109388"
       y="171.88286"
       x="175.73434"
       height="0.27978653"
       width="3.9864955"
       data-name="Rectangle 326"
       id="Rectangle_326-0-6-6-8-1-0-9-5-1"
       inkscape:export-filename="C:\Users\SOPORTETI\Desktop\Imagenes Crowd\comunidad crowd.png"
       inkscape:export-xdpi="450"
       inkscape:export-ydpi="450" />
    <rect
       style="fill:#ffffff;stroke-width:0.05109388"
       y="172.7222"
       x="175.73434"
       height="0.27978653"
       width="3.9864955"
       data-name="Rectangle 327"
       id="Rectangle_327-0-9-2-5-5-5-2-3-7"
       inkscape:export-filename="C:\Users\SOPORTETI\Desktop\Imagenes Crowd\comunidad crowd.png"
       inkscape:export-xdpi="450"
       inkscape:export-ydpi="450" />
    <path
       inkscape:connector-curvature="0"
       style="fill:#008fa6;fill-opacity:1;stroke-width:0.25430301"
       d="m 189.56822,168.72835 a 8.8225459,9.4239456 0 1 0 8.82252,9.42393 8.8484726,9.4516396 0 0 0 -8.82252,-9.42393 z m 0,2.82717 a 2.6467613,2.8271811 0 1 1 -2.64677,2.82718 2.6556414,2.8366666 0 0 1 2.64677,-2.82718 z m 0,13.61036 a 6.4271541,6.8652692 0 0 1 -5.29352,-3.01748 c 0.0424,-1.88479 3.52897,-2.92234 5.29352,-2.92234 1.76445,0 5.25107,1.03755 5.29352,2.92234 a 6.4378602,6.8767054 0 0 1 -5.29352,3.01748 z"
       id="path86-1-1-3-6-5-1-1-2-0"
       inkscape:export-filename="C:\Users\SOPORTETI\Desktop\Imagenes Crowd\comunidad crowd.png"
       inkscape:export-xdpi="450"
       inkscape:export-ydpi="450" />
    <ellipse
       style="opacity:1;fill:#000000;fill-opacity:0;fill-rule:nonzero;stroke:#000000;stroke-width:0.08912661;stroke-linecap:round;stroke-miterlimit:4;stroke-dasharray:none;stroke-opacity:0"
       id="path3381-5-4"
       cx="189.02547"
       cy="177.74377"
       rx="11.960907"
       ry="12.305413"
       inkscape:export-filename="C:\Users\SOPORTETI\Desktop\Imagenes Crowd\comunidad crowd.png"
       inkscape:export-xdpi="450"
       inkscape:export-ydpi="450" />
    <rect
       style="fill:#3f3d56;stroke-width:0.17077814"
       x="247.79317"
       y="20.637655"
       width="17.627071"
       height="0.55668908"
       id="rect26-3-4"
       transform="matrix(0.53677089,0.84372804,-0.82560461,0.56424908,0,0)"
       inkscape:export-filename="C:\Users\SOPORTETI\Desktop\Imagenes Crowd\comunidad crowd.png"
       inkscape:export-xdpi="450"
       inkscape:export-ydpi="450" />
    <path
       inkscape:connector-curvature="0"
       style="fill:#3f3d56;stroke-width:0.23924924"
       d="m 135.08675,256.95783 a 4.4888262,4.3590839 0 1 1 4.4889,-4.35915 4.4939052,4.3640162 0 0 1 -4.4889,4.35915 z m 0,-8.24663 a 4.0032591,3.8875511 0 1 0 4.00332,3.8875 4.0076777,3.8918422 0 0 0 -4.00332,-3.8875 z"
       id="path40-4-8"
       inkscape:export-filename="C:\Users\SOPORTETI\Desktop\Imagenes Crowd\comunidad crowd.png"
       inkscape:export-xdpi="450"
       inkscape:export-ydpi="450" />
    <ellipse
       style="opacity:1;fill:#ffffff;fill-opacity:1;fill-rule:nonzero;stroke:#ffffff;stroke-width:0.083285;stroke-linecap:round;stroke-miterlimit:4;stroke-dasharray:none;stroke-opacity:1"
       id="path3403-5-6-6-4"
       cx="131.94511"
       cy="249.39705"
       rx="8.7888975"
       ry="9.7680311"
       inkscape:export-filename="C:\Users\SOPORTETI\Desktop\Imagenes Crowd\comunidad crowd.png"
       inkscape:export-xdpi="450"
       inkscape:export-ydpi="450" />
    <path
       inkscape:connector-curvature="0"
       style="fill:#3f3d56;stroke-width:0.23924924"
       d="m 132.06852,253.46872 a 4.4888894,4.3591452 0 1 1 4.48888,-4.35916 4.4938542,4.3639667 0 0 1 -4.48888,4.35916 z m 0,-8.24676 a 4.003322,3.8876125 0 1 0 4.00332,3.8876 4.0078719,3.8920309 0 0 0 -4.00332,-3.8876 z"
       id="path36-7-0-3"
       inkscape:export-filename="C:\Users\SOPORTETI\Desktop\Imagenes Crowd\comunidad crowd.png"
       inkscape:export-xdpi="450"
       inkscape:export-ydpi="450" />
    <ellipse
       style="opacity:1;fill:#ffffff;fill-opacity:1;fill-rule:nonzero;stroke:#ffffff;stroke-width:0.09089602;stroke-linecap:round;stroke-miterlimit:4;stroke-dasharray:none;stroke-opacity:1"
       id="path3403-5-4-9"
       cx="131.17027"
       cy="245.79764"
       rx="9.8419275"
       ry="10.390046"
       inkscape:export-filename="C:\Users\SOPORTETI\Desktop\Imagenes Crowd\comunidad crowd.png"
       inkscape:export-xdpi="450"
       inkscape:export-ydpi="450" />
    <rect
       style="fill:#4770cc;fill-opacity:1;stroke-width:0.04938561"
       y="238.82222"
       x="118.10483"
       height="4.1225204"
       width="5.0552688"
       data-name="Rectangle 324"
       id="Rectangle_324-5-2-7-4-8-5-0-6-7-1-3-4-0"
       inkscape:export-filename="C:\Users\SOPORTETI\Desktop\Imagenes Crowd\comunidad crowd.png"
       inkscape:export-xdpi="450"
       inkscape:export-ydpi="450" />
    <rect
       style="fill:#ffffff;stroke-width:0.04938561"
       y="239.86493"
       x="118.70503"
       height="0.27483812"
       width="3.7914395"
       data-name="Rectangle 325"
       id="Rectangle_325-65-8-8-0-9-7-1-6-3-5-4-8-8"
       inkscape:export-filename="C:\Users\SOPORTETI\Desktop\Imagenes Crowd\comunidad crowd.png"
       inkscape:export-xdpi="450"
       inkscape:export-ydpi="450" />
    <rect
       style="fill:#ffffff;stroke-width:0.04938561"
       y="240.74605"
       x="118.73675"
       height="0.27483812"
       width="3.7914395"
       data-name="Rectangle 326"
       id="Rectangle_326-0-6-6-8-5-9-0-8-0-4-5-0-7"
       inkscape:export-filename="C:\Users\SOPORTETI\Desktop\Imagenes Crowd\comunidad crowd.png"
       inkscape:export-xdpi="450"
       inkscape:export-ydpi="450" />
    <rect
       style="fill:#ffffff;stroke-width:0.04938561"
       y="241.57054"
       x="118.73675"
       height="0.27483812"
       width="3.7914395"
       data-name="Rectangle 327"
       id="Rectangle_327-0-9-2-5-0-2-4-9-6-0-7-6-7"
       inkscape:export-filename="C:\Users\SOPORTETI\Desktop\Imagenes Crowd\comunidad crowd.png"
       inkscape:export-xdpi="450"
       inkscape:export-ydpi="450" />
    <path
       inkscape:connector-curvature="0"
       style="fill:#91cfd9;fill-opacity:1;stroke-width:0.24580067"
       d="m 132.85703,236.16267 a 8.3908661,9.2572711 0 1 0 8.39084,9.25727 8.4155243,9.2844748 0 0 0 -8.39084,-9.25727 z m 0,2.77718 a 2.5172575,2.7771786 0 1 1 -2.51728,2.77717 2.525703,2.7864964 0 0 1 2.51728,-2.77719 z m 0,13.36961 a 6.1126788,6.743848 0 0 1 -5.03451,-2.9641 c 0.0403,-1.85145 3.35631,-2.87064 5.03451,-2.87064 1.67812,0 4.99413,1.01919 5.0345,2.87064 a 6.1228609,6.7550816 0 0 1 -5.0345,2.9641 z"
       id="path86-1-17-0-3-0-5-5"
       inkscape:export-filename="C:\Users\SOPORTETI\Desktop\Imagenes Crowd\comunidad crowd.png"
       inkscape:export-xdpi="450"
       inkscape:export-ydpi="450" />
    <ellipse
       style="opacity:1;fill:#ffffff;fill-opacity:1;fill-rule:nonzero;stroke:#ffffff;stroke-width:0.06674695;stroke-linecap:round;stroke-miterlimit:4;stroke-dasharray:none;stroke-opacity:1"
       id="path3403-5-0"
       cx="11.896067"
       cy="274.12494"
       rx="6.9350948"
       ry="7.9509377"
       inkscape:export-filename="C:\Users\SOPORTETI\Desktop\Imagenes Crowd\comunidad crowd.png"
       inkscape:export-xdpi="450"
       inkscape:export-ydpi="450" />
    <path
       d="m 2.2367437,272.75067 h -0.02906 l 0.114999,0.24671 a 7.1016812,6.7861427 16.35184 0 0 0.472159,1.01271 l 3.373751,7.23624 a 1.3433421,1.2836553 16.35184 0 0 1.239397,0.78517 l 4.2871243,0.0389 a 1.3433351,1.2836487 16.351825 0 0 1.249206,-0.84964 l 2.707462,-7.72045 a 7.0908739,6.7758155 16.351816 0 0 0.231603,-0.66036 l 0.09191,-0.26215 h -0.02119 a 7.1438255,6.8264142 16.351848 1 0 -13.7168723,0.17223 z"
       id="path56-7-8"
       inkscape:connector-curvature="0"
       style="fill:#91cfd9;fill-opacity:1;stroke-width:0.06133935"
       inkscape:export-filename="C:\Users\SOPORTETI\Desktop\Imagenes Crowd\comunidad crowd.png"
       inkscape:export-xdpi="450"
       inkscape:export-ydpi="450" />
    <path
       d="m 12.037858,282.52635 a 1.4619055,1.3969507 16.351822 0 1 -0.222579,0.0145 l -4.4812733,-0.0408 a 1.4665244,1.4013645 16.351817 0 1 -1.353365,-0.8574 l -3.526484,-7.56384 a 7.4706493,7.1387176 16.351863 0 1 -0.495441,-1.06314 l -0.114771,-0.33643 a 7.5315129,7.196876 16.351833 0 1 7.064958,-9.16047 l 0.0032,0.12038 a 7.4087054,7.0795251 16.351838 0 0 -6.923159,9.08258 l 0.0869,0.2515 a 7.4220333,7.0922609 16.351828 0 0 0.491304,1.05417 l 3.528753,7.56823 a 1.3409349,1.2813552 16.351838 0 0 1.237581,0.784 l 4.4812383,0.0408 a 1.3432724,1.2835888 16.351842 0 0 1.247442,-0.84838 l 0.118647,0.0409 a 1.4696318,1.4043337 16.351815 0 1 -1.141572,0.91342 z"
       id="path58-0"
       inkscape:connector-curvature="0"
       style="fill:#f2f2f2;fill-opacity:1;stroke-width:0.06133935"
       inkscape:export-filename="C:\Users\SOPORTETI\Desktop\Imagenes Crowd\comunidad crowd.png"
       inkscape:export-xdpi="450"
       inkscape:export-ydpi="450" />
    <rect
       x="-273.08652"
       y="63.0014"
       width="7.5169158"
       height="0.16225906"
       transform="matrix(0.18915697,-0.98194686,0.98035908,0.19722089,0,0)"
       id="rect60-1-4"
       style="fill:#f2f2f2;fill-opacity:1;stroke-width:0.06134038"
       inkscape:export-filename="C:\Users\SOPORTETI\Desktop\Imagenes Crowd\comunidad crowd.png"
       inkscape:export-xdpi="450"
       inkscape:export-ydpi="450" />
    <path
       d="m 12.296862,286.14325 -5.7421723,-0.0521 a 0.16235164,0.15513811 16.351841 0 1 -0.0049,-0.31142 l 5.7421713,0.0522 a 0.16233338,0.15512066 16.35182 1 1 0.0047,0.31137 z"
       id="path64-6-4"
       inkscape:connector-curvature="0"
       style="fill:#91cfd9;fill-opacity:1;stroke-width:0.06133935"
       inkscape:export-filename="C:\Users\SOPORTETI\Desktop\Imagenes Crowd\comunidad crowd.png"
       inkscape:export-xdpi="450"
       inkscape:export-ydpi="450" />
    <path
       d="m 12.23808,284.97519 -5.7421363,-0.0521 a 0.16233434,0.15512158 16.351828 1 1 -0.0049,-0.31138 l 5.7421193,0.0521 a 0.16233222,0.15511954 16.351822 1 1 0.0049,0.31136 z"
       id="path66-6-0"
       inkscape:connector-curvature="0"
       style="fill:#91cfd9;fill-opacity:1;stroke-width:0.06133935"
       inkscape:export-filename="C:\Users\SOPORTETI\Desktop\Imagenes Crowd\comunidad crowd.png"
       inkscape:export-xdpi="450"
       inkscape:export-ydpi="450" />
    <path
       d="m 12.179263,283.80711 -5.7421013,-0.0522 a 0.16233222,0.15511954 16.351822 0 1 -0.0049,-0.31136 l 5.7421713,0.0522 a 0.16233222,0.15511954 16.351822 0 1 0.0047,0.31134 z"
       id="path68-6-7"
       inkscape:connector-curvature="0"
       style="fill:#91cfd9;fill-opacity:1;stroke-width:0.06133935"
       inkscape:export-filename="C:\Users\SOPORTETI\Desktop\Imagenes Crowd\comunidad crowd.png"
       inkscape:export-xdpi="450"
       inkscape:export-ydpi="450" />
    <path
       d="m 9.4432472,287.22776 c 1.1389878,0.0103 2.0527448,-0.59231 2.0408588,-1.34607 l -4.1246363,-0.0374 c 0.01187,0.75371 0.944771,1.37312 2.0837775,1.38348 z"
       id="path70-3-4"
       inkscape:connector-curvature="0"
       style="fill:#91cfd9;fill-opacity:1;stroke-width:0.06133935"
       inkscape:export-filename="C:\Users\SOPORTETI\Desktop\Imagenes Crowd\comunidad crowd.png"
       inkscape:export-xdpi="450"
       inkscape:export-ydpi="450" />
    <path
       d="m 8.8327027,272.06535 c -0.245007,-0.003 -0.474672,-0.15684 -0.604436,-0.26382 -0.04257,-0.0351 -0.08444,-0.0718 -0.126447,-0.10863 -0.15282,-0.13397 -0.297104,-0.26053 -0.476086,-0.31197 -0.395033,-0.11368 -0.785685,0.17718 -1.115444,0.47677 l -0.112625,-0.11446 c 0.362588,-0.32942 0.796996,-0.64771 1.270882,-0.5114 0.215301,0.0619 0.380669,0.20688 0.540592,0.34715 0.04072,0.0357 0.08133,0.0713 0.122555,0.10533 0.134983,0.11125 0.395802,0.2856 0.628015,0.20444 a 0.79050828,0.75538484 16.351826 0 0 0.2521625,-0.18061 1.5108021,1.4436749 16.351835 0 1 0.175072,-0.14705 0.79497358,0.75965167 16.351819 0 1 0.8779078,-0.003 1.570267,1.5004977 16.351838 0 1 0.137269,0.10257 c 0.08568,0.0689 0.166554,0.13403 0.259475,0.14875 0.137408,0.022 0.262494,-0.0693 0.395068,-0.16579 0.136728,-0.0996 0.27801,-0.20257 0.458091,-0.20729 0.0059,0 0.0117,0 0.01759,0 0.322411,0.003 0.52635,0.31827 0.652431,0.55731 l -0.143918,0.0677 c -0.171372,-0.32491 -0.336758,-0.47523 -0.51785,-0.46919 -0.129014,0.003 -0.244484,0.0875 -0.366742,0.17659 -0.153256,0.11174 -0.311887,0.22724 -0.517258,0.19448 -0.137408,-0.0217 -0.239875,-0.10425 -0.338886,-0.18397 a 1.4305095,1.3669498 16.351832 0 0 -0.12294,-0.0922 0.63786334,0.60952211 16.351827 0 0 -0.6951388,0.003 1.3702546,1.3093721 16.351834 0 0 -0.155995,0.13179 0.92220324,0.8812283 16.351818 0 1 -0.3077695,0.2142 0.53361931,0.50990976 16.351782 0 1 -0.185665,0.03 z"
       id="path72-0-7"
       inkscape:connector-curvature="0"
       style="fill:#f2f2f2;fill-opacity:1;stroke-width:0.06133935"
       inkscape:export-filename="C:\Users\SOPORTETI\Desktop\Imagenes Crowd\comunidad crowd.png"
       inkscape:export-xdpi="450"
       inkscape:export-ydpi="450" />
    <rect
       style="fill:#3f3d56;stroke-width:0.17075242"
       x="250.18152"
       y="34.291645"
       width="17.750036"
       height="0.55266607"
       id="rect26-3-4-4"
       transform="matrix(0.31342167,0.94961406,-0.94250943,0.33417954,0,0)"
       inkscape:transform-center-x="30.431117"
       inkscape:transform-center-y="36.272028"
       inkscape:export-filename="C:\Users\SOPORTETI\Desktop\Imagenes Crowd\comunidad crowd.png"
       inkscape:export-xdpi="450"
       inkscape:export-ydpi="450" />
    <path
       inkscape:connector-curvature="0"
       style="fill:#3f3d56;stroke-width:0.23924924"
       d="m 61.216478,289.54344 a 4.4888262,4.3590839 0 1 1 4.488901,-4.35915 4.4939052,4.3640162 0 0 1 -4.488901,4.35915 z m 0,-8.24664 a 4.0032591,3.8875511 0 1 0 4.003321,3.88751 4.0076777,3.8918422 0 0 0 -4.003321,-3.88751 z"
       id="path40-4-8-8"
       inkscape:export-filename="C:\Users\SOPORTETI\Desktop\Imagenes Crowd\comunidad crowd.png"
       inkscape:export-xdpi="450"
       inkscape:export-ydpi="450" />
    <path
       inkscape:connector-curvature="0"
       style="fill:#3f3d56;stroke-width:0.23924924"
       d="m 58.198245,286.05433 a 4.4888894,4.3591452 0 1 1 4.488883,-4.35916 4.4938542,4.3639667 0 0 1 -4.488883,4.35916 z m 0,-8.24676 a 4.003322,3.8876125 0 1 0 4.00332,3.8876 4.0078719,3.8920309 0 0 0 -4.00332,-3.8876 z"
       id="path36-7-0-3-3"
       inkscape:export-filename="C:\Users\SOPORTETI\Desktop\Imagenes Crowd\comunidad crowd.png"
       inkscape:export-xdpi="450"
       inkscape:export-ydpi="450" />
    <ellipse
       style="opacity:1;fill:#ffffff;fill-opacity:1;fill-rule:nonzero;stroke:#ffffff;stroke-width:0.10840242;stroke-linecap:round;stroke-miterlimit:4;stroke-dasharray:none;stroke-opacity:1"
       id="path3403-5-4-9-6"
       cx="58.709042"
       cy="280.93896"
       rx="11.242353"
       ry="12.936851"
       inkscape:export-filename="C:\Users\SOPORTETI\Desktop\Imagenes Crowd\comunidad crowd.png"
       inkscape:export-xdpi="450"
       inkscape:export-ydpi="450" />
    <rect
       style="fill:#4770cc;fill-opacity:1;stroke-width:0.04938561"
       y="271.40784"
       x="44.234562"
       height="4.1225204"
       width="5.0552688"
       data-name="Rectangle 324"
       id="Rectangle_324-5-2-7-4-8-5-0-6-7-1-3-4-0-9"
       inkscape:export-filename="C:\Users\SOPORTETI\Desktop\Imagenes Crowd\comunidad crowd.png"
       inkscape:export-xdpi="450"
       inkscape:export-ydpi="450" />
    <rect
       style="fill:#ffffff;stroke-width:0.04938561"
       y="272.45056"
       x="44.834774"
       height="0.27483812"
       width="3.7914395"
       data-name="Rectangle 325"
       id="Rectangle_325-65-8-8-0-9-7-1-6-3-5-4-8-8-1"
       inkscape:export-filename="C:\Users\SOPORTETI\Desktop\Imagenes Crowd\comunidad crowd.png"
       inkscape:export-xdpi="450"
       inkscape:export-ydpi="450" />
    <rect
       style="fill:#ffffff;stroke-width:0.04938561"
       y="273.33167"
       x="44.866474"
       height="0.27483812"
       width="3.7914395"
       data-name="Rectangle 326"
       id="Rectangle_326-0-6-6-8-5-9-0-8-0-4-5-0-7-3"
       inkscape:export-filename="C:\Users\SOPORTETI\Desktop\Imagenes Crowd\comunidad crowd.png"
       inkscape:export-xdpi="450"
       inkscape:export-ydpi="450" />
    <rect
       style="fill:#ffffff;stroke-width:0.04938561"
       y="274.15616"
       x="44.866474"
       height="0.27483812"
       width="3.7914395"
       data-name="Rectangle 327"
       id="Rectangle_327-0-9-2-5-0-2-4-9-6-0-7-6-7-0"
       inkscape:export-filename="C:\Users\SOPORTETI\Desktop\Imagenes Crowd\comunidad crowd.png"
       inkscape:export-xdpi="450"
       inkscape:export-ydpi="450" />
    <path
       inkscape:connector-curvature="0"
       style="fill:#91cfd9;fill-opacity:1;stroke-width:0.24580067"
       d="m 58.986758,268.74828 a 8.3908661,9.2572711 0 1 0 8.390831,9.25727 8.4155243,9.2844748 0 0 0 -8.390831,-9.25727 z m 0,2.77718 a 2.5172575,2.7771786 0 1 1 -2.517276,2.77717 2.525703,2.7864964 0 0 1 2.517276,-2.77719 z m 0,13.36961 a 6.1126788,6.743848 0 0 1 -5.034518,-2.9641 c 0.04034,-1.85145 3.356316,-2.87064 5.034518,-2.87064 1.678114,0 4.994132,1.01919 5.034501,2.87064 a 6.1228609,6.7550816 0 0 1 -5.034501,2.9641 z"
       id="path86-1-17-0-3-0-5-5-5"
       inkscape:export-filename="C:\Users\SOPORTETI\Desktop\Imagenes Crowd\comunidad crowd.png"
       inkscape:export-xdpi="450"
       inkscape:export-ydpi="450" />
    <path
       inkscape:connector-curvature="0"
       style="fill:#3f3d56;stroke-width:0.23924924"
       d="m 72.668899,192.93181 c -0.12994,-0.44873 -0.27028,-0.90173 -0.4168,-1.34666 l 0.46234,-0.14368 c 0.1484,0.45012 0.29041,0.90853 0.42199,1.36256 z"
       id="path16-4-2"
       inkscape:export-filename="C:\Users\SOPORTETI\Desktop\Imagenes Crowd\comunidad crowd.png"
       inkscape:export-xdpi="450"
       inkscape:export-ydpi="450" />
    <ellipse
       style="fill:#f3a100;stroke-width:0.23924924"
       cx="74.924614"
       cy="206.33456"
       rx="8.0877132"
       ry="0.5890457"
       id="ellipse22-0"
       inkscape:export-filename="C:\Users\SOPORTETI\Desktop\Imagenes Crowd\comunidad crowd.png"
       inkscape:export-xdpi="450"
       inkscape:export-ydpi="450" />
    <path
       inkscape:connector-curvature="0"
       style="fill:#3f3d56;stroke-width:0.23924924"
       d="m 74.924609,205.98128 a 4.4888262,4.3590839 0 1 1 4.48888,-4.35916 4.4939539,4.3640633 0 0 1 -4.48888,4.35916 z m 0,-8.24665 a 4.0032591,3.8875511 0 1 0 4.0033,3.88751 4.0078719,3.8920309 0 0 0 -4.0033,-3.88753 z"
       id="path42-7-5"
       inkscape:export-filename="C:\Users\SOPORTETI\Desktop\Imagenes Crowd\comunidad crowd.png"
       inkscape:export-xdpi="450"
       inkscape:export-ydpi="450" />
    <ellipse
       style="opacity:1;fill:#ffffff;fill-opacity:1;fill-rule:nonzero;stroke:#ffffff;stroke-width:0.10840242;stroke-linecap:round;stroke-miterlimit:4;stroke-dasharray:none;stroke-opacity:1"
       id="path3403-5-6-6-0-0"
       cx="76.940979"
       cy="203.51628"
       rx="11.242353"
       ry="12.936851"
       inkscape:export-filename="C:\Users\SOPORTETI\Desktop\Imagenes Crowd\comunidad crowd.png"
       inkscape:export-xdpi="450"
       inkscape:export-ydpi="450" />
    <path
       inkscape:connector-curvature="0"
       style="fill:#3f3d56;stroke-width:0.23924924"
       d="m 74.457279,197.86242 c -0.13002,-0.44875 -0.27136,-0.90106 -0.42012,-1.3444 l 0.46163,-0.1462 c 0.15079,0.44945 0.2941,0.90797 0.42582,1.36279 z"
       id="path10-1-9"
       inkscape:export-filename="C:\Users\SOPORTETI\Desktop\Imagenes Crowd\comunidad crowd.png"
       inkscape:export-xdpi="450"
       inkscape:export-ydpi="450" />
    <ellipse
       style="fill:#f3a100;stroke-width:0.23924924"
       cx="74.21241"
       cy="203.74921"
       rx="8.0877132"
       ry="0.5890457"
       id="ellipse20-5-8"
       inkscape:export-filename="C:\Users\SOPORTETI\Desktop\Imagenes Crowd\comunidad crowd.png"
       inkscape:export-xdpi="450"
       inkscape:export-ydpi="450" />
    <path
       inkscape:connector-curvature="0"
       style="fill:#3f3d56;stroke-width:0.23924924"
       d="m 74.212359,203.39589 a 4.4888262,4.3590839 0 1 1 4.4889,-4.35915 4.4939247,4.364035 0 0 1 -4.4889,4.35915 z m 0,-8.24664 a 4.0032591,3.8875511 0 1 0 4.00334,3.88751 4.007782,3.8919435 0 0 0 -4.00334,-3.88751 z"
       id="path38-9-3"
       inkscape:export-filename="C:\Users\SOPORTETI\Desktop\Imagenes Crowd\comunidad crowd.png"
       inkscape:export-xdpi="450"
       inkscape:export-ydpi="450" />
    <ellipse
       style="opacity:1;fill:#ffffff;fill-opacity:1;fill-rule:nonzero;stroke:#ffffff;stroke-width:0.10840242;stroke-linecap:round;stroke-miterlimit:4;stroke-dasharray:none;stroke-opacity:1"
       id="path3403-5-6-66-2"
       cx="75.332275"
       cy="200.19687"
       rx="11.242353"
       ry="12.936851"
       inkscape:export-filename="C:\Users\SOPORTETI\Desktop\Imagenes Crowd\comunidad crowd.png"
       inkscape:export-xdpi="450"
       inkscape:export-ydpi="450" />
    <path
       inkscape:connector-curvature="0"
       style="fill:#3f3d56;stroke-width:0.23924924"
       d="m 75.307279,199.90135 c -0.2723,-0.39162 -0.54,-0.79363 -0.79568,-1.19493 l 0.41301,-0.24822 c 0.25227,0.39625 0.51638,0.79295 0.78502,1.17931 z"
       id="path6-6-7-9"
       inkscape:export-filename="C:\Users\SOPORTETI\Desktop\Imagenes Crowd\comunidad crowd.png"
       inkscape:export-xdpi="450"
       inkscape:export-ydpi="450" />
    <ellipse
       style="fill:#f3a100;stroke-width:0.23924924"
       cx="75.023308"
       cy="205.1647"
       rx="8.0877132"
       ry="0.5890457"
       id="ellipse18-6-7-3"
       inkscape:export-filename="C:\Users\SOPORTETI\Desktop\Imagenes Crowd\comunidad crowd.png"
       inkscape:export-xdpi="450"
       inkscape:export-ydpi="450" />
    <path
       inkscape:connector-curvature="0"
       style="fill:#3f3d56;stroke-width:0.23924924"
       d="m 75.023359,204.81147 a 4.4888894,4.3591452 0 1 1 4.48877,-4.35915 4.4939563,4.3640656 0 0 1 -4.48877,4.35915 z m 0,-8.24675 a 4.003322,3.8876125 0 1 0 4.00321,3.8876 4.0079084,3.8920662 0 0 0 -4.00321,-3.8876 z"
       id="path34-2-8-2-1"
       inkscape:export-filename="C:\Users\SOPORTETI\Desktop\Imagenes Crowd\comunidad crowd.png"
       inkscape:export-xdpi="450"
       inkscape:export-ydpi="450" />
    <ellipse
       style="opacity:1;fill:#00ff00;fill-opacity:0;fill-rule:nonzero;stroke:#000000;stroke-width:0.10590018;stroke-linecap:round;stroke-miterlimit:4;stroke-dasharray:none;stroke-opacity:0"
       id="path3383-2-8-5"
       cx="72.008049"
       cy="200.1619"
       rx="9.1586571"
       ry="10.327179"
       inkscape:export-filename="C:\Users\SOPORTETI\Desktop\Imagenes Crowd\comunidad crowd.png"
       inkscape:export-xdpi="450"
       inkscape:export-ydpi="450" />
    <ellipse
       style="opacity:1;fill:#ffffff;fill-opacity:1;fill-rule:nonzero;stroke:#ffffff;stroke-width:0.10840242;stroke-linecap:round;stroke-miterlimit:4;stroke-dasharray:none;stroke-opacity:1"
       id="path3403-3-1-9"
       cx="74.975578"
       cy="198.28426"
       rx="11.242353"
       ry="12.936851"
       inkscape:export-filename="C:\Users\SOPORTETI\Desktop\Imagenes Crowd\comunidad crowd.png"
       inkscape:export-xdpi="450"
       inkscape:export-ydpi="450" />
    <rect
       style="fill:#7cb02d;fill-opacity:1;stroke-width:0.05109388"
       y="179.6273"
       x="70.798134"
       height="4.1967459"
       width="5.3153439"
       data-name="Rectangle 324"
       id="Rectangle_324-5-2-7-4-0-6-9-4-9-1"
       inkscape:export-filename="C:\Users\SOPORTETI\Desktop\Imagenes Crowd\comunidad crowd.png"
       inkscape:export-xdpi="450"
       inkscape:export-ydpi="450" />
    <rect
       style="fill:#ffffff;stroke-width:0.05109388"
       y="180.74646"
       x="71.462593"
       height="0.27978653"
       width="3.9864955"
       data-name="Rectangle 325"
       id="Rectangle_325-65-8-8-0-7-6-7-5-8-2"
       inkscape:export-filename="C:\Users\SOPORTETI\Desktop\Imagenes Crowd\comunidad crowd.png"
       inkscape:export-xdpi="450"
       inkscape:export-ydpi="450" />
    <rect
       style="fill:#ffffff;stroke-width:0.05109388"
       y="181.5858"
       x="71.462593"
       height="0.27978653"
       width="3.9864955"
       data-name="Rectangle 326"
       id="Rectangle_326-0-6-6-8-1-0-9-5-1-5"
       inkscape:export-filename="C:\Users\SOPORTETI\Desktop\Imagenes Crowd\comunidad crowd.png"
       inkscape:export-xdpi="450"
       inkscape:export-ydpi="450" />
    <rect
       style="fill:#ffffff;stroke-width:0.05109388"
       y="182.42514"
       x="71.462593"
       height="0.27978653"
       width="3.9864955"
       data-name="Rectangle 327"
       id="Rectangle_327-0-9-2-5-5-5-2-3-7-3"
       inkscape:export-filename="C:\Users\SOPORTETI\Desktop\Imagenes Crowd\comunidad crowd.png"
       inkscape:export-xdpi="450"
       inkscape:export-ydpi="450" />
    <path
       inkscape:connector-curvature="0"
       style="fill:#008fa6;fill-opacity:1;stroke-width:0.25430301"
       d="m 75.023359,188.37394 a 8.8225459,9.4239456 0 1 0 8.82252,9.42393 8.8484726,9.4516396 0 0 0 -8.82252,-9.42393 z m 0,2.82717 a 2.6467613,2.8271811 0 1 1 -2.64677,2.82718 2.6556414,2.8366666 0 0 1 2.64677,-2.82718 z m 0,13.61036 a 6.4271541,6.8652692 0 0 1 -5.29352,-3.01748 c 0.0424,-1.88479 3.52897,-2.92234 5.29352,-2.92234 1.76445,0 5.25108,1.03755 5.29352,2.92234 a 6.4378602,6.8767054 0 0 1 -5.29352,3.01748 z"
       id="path86-1-1-3-6-5-1-1-2-0-8"
       inkscape:export-filename="C:\Users\SOPORTETI\Desktop\Imagenes Crowd\comunidad crowd.png"
       inkscape:export-xdpi="450"
       inkscape:export-ydpi="450" />
    <ellipse
       style="opacity:1;fill:#000000;fill-opacity:0;fill-rule:nonzero;stroke:#000000;stroke-width:0.08912661;stroke-linecap:round;stroke-miterlimit:4;stroke-dasharray:none;stroke-opacity:0"
       id="path3381-5-4-0"
       cx="74.480583"
       cy="197.38936"
       rx="11.960907"
       ry="12.305413"
       inkscape:export-filename="C:\Users\SOPORTETI\Desktop\Imagenes Crowd\comunidad crowd.png"
       inkscape:export-xdpi="450"
       inkscape:export-ydpi="450" />
    <path
       inkscape:connector-curvature="0"
       style="fill:#3f3d56;stroke-width:0.23924924"
       d="m 44.425174,206.9325 a 4.4888262,4.3590839 0 1 1 4.4889,-4.35916 4.4939052,4.3640162 0 0 1 -4.4889,4.35916 z m 0,-8.24665 a 4.0032591,3.8875511 0 1 0 4.00332,3.88751 4.0076777,3.8918422 0 0 0 -4.00332,-3.88751 z"
       id="path40-4-8-2"
       inkscape:export-filename="C:\Users\SOPORTETI\Desktop\Imagenes Crowd\comunidad crowd.png"
       inkscape:export-xdpi="450"
       inkscape:export-ydpi="450" />
    <path
       inkscape:connector-curvature="0"
       style="fill:#3f3d56;stroke-width:0.23924924"
       d="m 41.406941,203.44338 a 4.4888894,4.3591452 0 1 1 4.488882,-4.35916 4.4938542,4.3639667 0 0 1 -4.488882,4.35916 z m 0,-8.24675 a 4.003322,3.8876125 0 1 0 4.00332,3.88759 4.0078719,3.8920309 0 0 0 -4.00332,-3.88759 z"
       id="path36-7-0-3-0"
       inkscape:export-filename="C:\Users\SOPORTETI\Desktop\Imagenes Crowd\comunidad crowd.png"
       inkscape:export-xdpi="450"
       inkscape:export-ydpi="450" />
    <ellipse
       style="opacity:1;fill:#ffffff;fill-opacity:1;fill-rule:nonzero;stroke:#ffffff;stroke-width:0.10840242;stroke-linecap:round;stroke-miterlimit:4;stroke-dasharray:none;stroke-opacity:1"
       id="path3403-5-4-9-2"
       cx="41.917721"
       cy="198.32799"
       rx="11.242353"
       ry="12.936851"
       inkscape:export-filename="C:\Users\SOPORTETI\Desktop\Imagenes Crowd\comunidad crowd.png"
       inkscape:export-xdpi="450"
       inkscape:export-ydpi="450" />
    <rect
       style="fill:#4770cc;fill-opacity:1;stroke-width:0.04938561"
       y="188.79686"
       x="27.443253"
       height="4.1225204"
       width="5.0552688"
       data-name="Rectangle 324"
       id="Rectangle_324-5-2-7-4-8-5-0-6-7-1-3-4-0-0"
       inkscape:export-filename="C:\Users\SOPORTETI\Desktop\Imagenes Crowd\comunidad crowd.png"
       inkscape:export-xdpi="450"
       inkscape:export-ydpi="450" />
    <rect
       style="fill:#ffffff;stroke-width:0.04938561"
       y="189.83957"
       x="28.043457"
       height="0.27483812"
       width="3.7914395"
       data-name="Rectangle 325"
       id="Rectangle_325-65-8-8-0-9-7-1-6-3-5-4-8-8-7"
       inkscape:export-filename="C:\Users\SOPORTETI\Desktop\Imagenes Crowd\comunidad crowd.png"
       inkscape:export-xdpi="450"
       inkscape:export-ydpi="450" />
    <rect
       style="fill:#ffffff;stroke-width:0.04938561"
       y="190.72069"
       x="28.075157"
       height="0.27483812"
       width="3.7914395"
       data-name="Rectangle 326"
       id="Rectangle_326-0-6-6-8-5-9-0-8-0-4-5-0-7-9"
       inkscape:export-filename="C:\Users\SOPORTETI\Desktop\Imagenes Crowd\comunidad crowd.png"
       inkscape:export-xdpi="450"
       inkscape:export-ydpi="450" />
    <rect
       style="fill:#ffffff;stroke-width:0.04938561"
       y="191.54518"
       x="28.075157"
       height="0.27483812"
       width="3.7914395"
       data-name="Rectangle 327"
       id="Rectangle_327-0-9-2-5-0-2-4-9-6-0-7-6-7-1"
       inkscape:export-filename="C:\Users\SOPORTETI\Desktop\Imagenes Crowd\comunidad crowd.png"
       inkscape:export-xdpi="450"
       inkscape:export-ydpi="450" />
    <path
       inkscape:connector-curvature="0"
       style="fill:#91cfd9;fill-opacity:1;stroke-width:0.24580067"
       d="m 42.195454,186.13733 a 8.3908661,9.2572711 0 1 0 8.390835,9.25727 8.4155243,9.2844748 0 0 0 -8.390835,-9.25727 z m 0,2.77719 a 2.5172575,2.7771786 0 1 1 -2.517276,2.77716 2.525703,2.7864964 0 0 1 2.517276,-2.77718 z m 0,13.36961 a 6.1126788,6.743848 0 0 1 -5.034518,-2.96411 c 0.04033,-1.85145 3.356316,-2.87063 5.034518,-2.87063 1.678115,0 4.994132,1.01918 5.034501,2.87063 a 6.1228609,6.7550816 0 0 1 -5.034501,2.96411 z"
       id="path86-1-17-0-3-0-5-5-0"
       inkscape:export-filename="C:\Users\SOPORTETI\Desktop\Imagenes Crowd\comunidad crowd.png"
       inkscape:export-xdpi="450"
       inkscape:export-ydpi="450" />
    <path
       inkscape:connector-curvature="0"
       style="fill:#3f3d56;stroke-width:0.23924924"
       d="m 120.21686,181.54487 a 4.4888262,4.3590839 0 1 1 4.4889,-4.35915 4.4939052,4.3640162 0 0 1 -4.4889,4.35915 z m 0,-8.24664 a 4.0032591,3.8875511 0 1 0 4.00332,3.88751 4.0076777,3.8918422 0 0 0 -4.00332,-3.88751 z"
       id="path40-4-8-22"
       inkscape:export-filename="C:\Users\SOPORTETI\Desktop\Imagenes Crowd\comunidad crowd.png"
       inkscape:export-xdpi="450"
       inkscape:export-ydpi="450" />
    <path
       inkscape:connector-curvature="0"
       style="fill:#3f3d56;stroke-width:0.23924924"
       d="m 117.19863,178.05576 a 4.4888894,4.3591452 0 1 1 4.48888,-4.35916 4.4938542,4.3639667 0 0 1 -4.48888,4.35916 z m 0,-8.24675 a 4.003322,3.8876125 0 1 0 4.00331,3.88759 4.0078719,3.8920309 0 0 0 -4.00331,-3.88759 z"
       id="path36-7-0-3-32"
       inkscape:export-filename="C:\Users\SOPORTETI\Desktop\Imagenes Crowd\comunidad crowd.png"
       inkscape:export-xdpi="450"
       inkscape:export-ydpi="450" />
    <ellipse
       style="opacity:1;fill:#ffffff;fill-opacity:1;fill-rule:nonzero;stroke:#ffffff;stroke-width:0.1053081;stroke-linecap:round;stroke-miterlimit:4;stroke-dasharray:none;stroke-opacity:1"
       id="path3403-5-4-9-3"
       cx="120.27139"
       cy="171.90773"
       rx="11.528539"
       ry="11.905761"
       inkscape:export-filename="C:\Users\SOPORTETI\Desktop\Imagenes Crowd\comunidad crowd.png"
       inkscape:export-xdpi="450"
       inkscape:export-ydpi="450" />
    <rect
       style="fill:#4770cc;fill-opacity:1;stroke-width:0.04938561"
       y="163.40926"
       x="103.23495"
       height="4.1225204"
       width="5.0552688"
       data-name="Rectangle 324"
       id="Rectangle_324-5-2-7-4-8-5-0-6-7-1-3-4-0-94"
       inkscape:export-filename="C:\Users\SOPORTETI\Desktop\Imagenes Crowd\comunidad crowd.png"
       inkscape:export-xdpi="450"
       inkscape:export-ydpi="450" />
    <rect
       style="fill:#ffffff;stroke-width:0.04938561"
       y="164.45198"
       x="103.83512"
       height="0.27483812"
       width="3.7914395"
       data-name="Rectangle 325"
       id="Rectangle_325-65-8-8-0-9-7-1-6-3-5-4-8-8-9"
       inkscape:export-filename="C:\Users\SOPORTETI\Desktop\Imagenes Crowd\comunidad crowd.png"
       inkscape:export-xdpi="450"
       inkscape:export-ydpi="450" />
    <rect
       style="fill:#ffffff;stroke-width:0.04938561"
       y="165.3331"
       x="103.86684"
       height="0.27483812"
       width="3.7914395"
       data-name="Rectangle 326"
       id="Rectangle_326-0-6-6-8-5-9-0-8-0-4-5-0-7-0"
       inkscape:export-filename="C:\Users\SOPORTETI\Desktop\Imagenes Crowd\comunidad crowd.png"
       inkscape:export-xdpi="450"
       inkscape:export-ydpi="450" />
    <rect
       style="fill:#ffffff;stroke-width:0.04938561"
       y="166.15759"
       x="103.86684"
       height="0.27483812"
       width="3.7914395"
       data-name="Rectangle 327"
       id="Rectangle_327-0-9-2-5-0-2-4-9-6-0-7-6-7-8"
       inkscape:export-filename="C:\Users\SOPORTETI\Desktop\Imagenes Crowd\comunidad crowd.png"
       inkscape:export-xdpi="450"
       inkscape:export-ydpi="450" />
    <path
       inkscape:connector-curvature="0"
       style="fill:#91cfd9;fill-opacity:1;stroke-width:0.24580067"
       d="m 117.98714,160.74971 a 8.3908661,9.2572711 0 1 0 8.39084,9.25727 8.4155243,9.2844748 0 0 0 -8.39084,-9.25727 z m 0,2.77718 a 2.5172575,2.7771786 0 1 1 -2.51727,2.77717 2.525703,2.7864964 0 0 1 2.51727,-2.77718 z m 0,13.36961 a 6.1126788,6.743848 0 0 1 -5.03452,-2.9641 c 0.0403,-1.85145 3.35632,-2.87064 5.03452,-2.87064 1.67812,0 4.99413,1.01919 5.0345,2.87064 a 6.1228609,6.7550816 0 0 1 -5.0345,2.9641 z"
       id="path86-1-17-0-3-0-5-5-9"
       inkscape:export-filename="C:\Users\SOPORTETI\Desktop\Imagenes Crowd\comunidad crowd.png"
       inkscape:export-xdpi="450"
       inkscape:export-ydpi="450" />
    <path
       inkscape:connector-curvature="0"
       style="fill:#3f3d56;stroke-width:0.23924924"
       d="m 105.77397,265.41994 c -0.12994,-0.44873 -0.27028,-0.90173 -0.4168,-1.34666 l 0.46234,-0.14369 c 0.1484,0.45013 0.29042,0.90854 0.422,1.36256 z"
       id="path16-4-8"
       inkscape:export-filename="C:\Users\SOPORTETI\Desktop\Imagenes Crowd\comunidad crowd.png"
       inkscape:export-xdpi="450"
       inkscape:export-ydpi="450" />
    <ellipse
       style="fill:#f3a100;stroke-width:0.23924924"
       cx="108.02969"
       cy="278.82263"
       rx="8.0877132"
       ry="0.5890457"
       id="ellipse22-08"
       inkscape:export-filename="C:\Users\SOPORTETI\Desktop\Imagenes Crowd\comunidad crowd.png"
       inkscape:export-xdpi="450"
       inkscape:export-ydpi="450" />
    <path
       inkscape:connector-curvature="0"
       style="fill:#3f3d56;stroke-width:0.23924924"
       d="m 108.02968,278.4694 a 4.4888262,4.3590839 0 1 1 4.48888,-4.35915 4.4939539,4.3640633 0 0 1 -4.48888,4.35915 z m 0,-8.24664 a 4.0032591,3.8875511 0 1 0 4.0033,3.8875 4.0078719,3.8920309 0 0 0 -4.0033,-3.88752 z"
       id="path42-7-8"
       inkscape:export-filename="C:\Users\SOPORTETI\Desktop\Imagenes Crowd\comunidad crowd.png"
       inkscape:export-xdpi="450"
       inkscape:export-ydpi="450" />
    <ellipse
       style="opacity:1;fill:#ffffff;fill-opacity:1;fill-rule:nonzero;stroke:#ffffff;stroke-width:0.10840242;stroke-linecap:round;stroke-miterlimit:4;stroke-dasharray:none;stroke-opacity:1"
       id="path3403-5-6-6-0-09"
       cx="110.04604"
       cy="276.00439"
       rx="11.242353"
       ry="12.936851"
       inkscape:export-filename="C:\Users\SOPORTETI\Desktop\Imagenes Crowd\comunidad crowd.png"
       inkscape:export-xdpi="450"
       inkscape:export-ydpi="450" />
    <path
       inkscape:connector-curvature="0"
       style="fill:#3f3d56;stroke-width:0.23924924"
       d="m 107.56236,270.35055 c -0.13003,-0.44875 -0.27137,-0.90107 -0.42014,-1.34441 l 0.46164,-0.14619 c 0.15079,0.44945 0.2941,0.90797 0.42582,1.36279 z"
       id="path10-1-3"
       inkscape:export-filename="C:\Users\SOPORTETI\Desktop\Imagenes Crowd\comunidad crowd.png"
       inkscape:export-xdpi="450"
       inkscape:export-ydpi="450" />
    <ellipse
       style="fill:#f3a100;stroke-width:0.23924924"
       cx="107.31747"
       cy="276.2373"
       rx="8.0877132"
       ry="0.5890457"
       id="ellipse20-5-0"
       inkscape:export-filename="C:\Users\SOPORTETI\Desktop\Imagenes Crowd\comunidad crowd.png"
       inkscape:export-xdpi="450"
       inkscape:export-ydpi="450" />
    <path
       inkscape:connector-curvature="0"
       style="fill:#3f3d56;stroke-width:0.23924924"
       d="m 107.31744,275.88402 a 4.4888262,4.3590839 0 1 1 4.4889,-4.35916 4.4939247,4.364035 0 0 1 -4.4889,4.35916 z m 0,-8.24664 a 4.0032591,3.8875511 0 1 0 4.00333,3.8875 4.007782,3.8919435 0 0 0 -4.00333,-3.8875 z"
       id="path38-9-4"
       inkscape:export-filename="C:\Users\SOPORTETI\Desktop\Imagenes Crowd\comunidad crowd.png"
       inkscape:export-xdpi="450"
       inkscape:export-ydpi="450" />
    <ellipse
       style="opacity:1;fill:#ffffff;fill-opacity:1;fill-rule:nonzero;stroke:#ffffff;stroke-width:0.10840242;stroke-linecap:round;stroke-miterlimit:4;stroke-dasharray:none;stroke-opacity:1"
       id="path3403-5-6-66-9"
       cx="108.43735"
       cy="272.685"
       rx="11.242353"
       ry="12.936851"
       inkscape:export-filename="C:\Users\SOPORTETI\Desktop\Imagenes Crowd\comunidad crowd.png"
       inkscape:export-xdpi="450"
       inkscape:export-ydpi="450" />
    <path
       inkscape:connector-curvature="0"
       style="fill:#3f3d56;stroke-width:0.23924924"
       d="m 108.41236,272.38948 c -0.2723,-0.39163 -0.54,-0.79363 -0.79569,-1.19493 l 0.41301,-0.24823 c 0.25227,0.39625 0.51639,0.79296 0.78502,1.17932 z"
       id="path6-6-7-4"
       inkscape:export-filename="C:\Users\SOPORTETI\Desktop\Imagenes Crowd\comunidad crowd.png"
       inkscape:export-xdpi="450"
       inkscape:export-ydpi="450" />
    <ellipse
       style="fill:#f3a100;stroke-width:0.23924924"
       cx="108.12837"
       cy="277.6528"
       rx="8.0877132"
       ry="0.5890457"
       id="ellipse18-6-7-1"
       inkscape:export-filename="C:\Users\SOPORTETI\Desktop\Imagenes Crowd\comunidad crowd.png"
       inkscape:export-xdpi="450"
       inkscape:export-ydpi="450" />
    <path
       inkscape:connector-curvature="0"
       style="fill:#3f3d56;stroke-width:0.23924924"
       d="m 108.12843,277.2996 a 4.4888894,4.3591452 0 1 1 4.48878,-4.35916 4.4939563,4.3640656 0 0 1 -4.48878,4.35916 z m 0,-8.24675 a 4.003322,3.8876125 0 1 0 4.00321,3.88759 4.0079084,3.8920662 0 0 0 -4.00321,-3.88759 z"
       id="path34-2-8-2-7"
       inkscape:export-filename="C:\Users\SOPORTETI\Desktop\Imagenes Crowd\comunidad crowd.png"
       inkscape:export-xdpi="450"
       inkscape:export-ydpi="450" />
    <ellipse
       style="opacity:1;fill:#00ff00;fill-opacity:0;fill-rule:nonzero;stroke:#000000;stroke-width:0.10590018;stroke-linecap:round;stroke-miterlimit:4;stroke-dasharray:none;stroke-opacity:0"
       id="path3383-2-8-9"
       cx="105.11312"
       cy="272.64999"
       rx="9.1586571"
       ry="10.327179"
       inkscape:export-filename="C:\Users\SOPORTETI\Desktop\Imagenes Crowd\comunidad crowd.png"
       inkscape:export-xdpi="450"
       inkscape:export-ydpi="450" />
    <ellipse
       style="opacity:1;fill:#ffffff;fill-opacity:1;fill-rule:nonzero;stroke:#ffffff;stroke-width:0.10840242;stroke-linecap:round;stroke-miterlimit:4;stroke-dasharray:none;stroke-opacity:1"
       id="path3403-3-1-8"
       cx="108.08066"
       cy="270.77237"
       rx="11.242353"
       ry="12.936851"
       inkscape:export-filename="C:\Users\SOPORTETI\Desktop\Imagenes Crowd\comunidad crowd.png"
       inkscape:export-xdpi="450"
       inkscape:export-ydpi="450" />
    <rect
       style="fill:#a3ca64;fill-opacity:1;stroke-width:0.05109388"
       y="261.64081"
       x="117.3822"
       height="4.1967459"
       width="5.3153439"
       data-name="Rectangle 324"
       id="Rectangle_324-5-2-7-4-0-6-9-4-9-8"
       inkscape:export-filename="C:\Users\SOPORTETI\Desktop\Imagenes Crowd\comunidad crowd.png"
       inkscape:export-xdpi="450"
       inkscape:export-ydpi="450" />
    <rect
       style="fill:#ffffff;stroke-width:0.05109388"
       y="262.75995"
       x="118.04666"
       height="0.27978653"
       width="3.9864955"
       data-name="Rectangle 325"
       id="Rectangle_325-65-8-8-0-7-6-7-5-8-8"
       inkscape:export-filename="C:\Users\SOPORTETI\Desktop\Imagenes Crowd\comunidad crowd.png"
       inkscape:export-xdpi="450"
       inkscape:export-ydpi="450" />
    <rect
       style="fill:#ffffff;stroke-width:0.05109388"
       y="263.5993"
       x="118.04666"
       height="0.27978653"
       width="3.9864955"
       data-name="Rectangle 326"
       id="Rectangle_326-0-6-6-8-1-0-9-5-1-3"
       inkscape:export-filename="C:\Users\SOPORTETI\Desktop\Imagenes Crowd\comunidad crowd.png"
       inkscape:export-xdpi="450"
       inkscape:export-ydpi="450" />
    <rect
       style="fill:#ffffff;stroke-width:0.05109388"
       y="264.43863"
       x="118.04666"
       height="0.27978653"
       width="3.9864955"
       data-name="Rectangle 327"
       id="Rectangle_327-0-9-2-5-5-5-2-3-7-2"
       inkscape:export-filename="C:\Users\SOPORTETI\Desktop\Imagenes Crowd\comunidad crowd.png"
       inkscape:export-xdpi="450"
       inkscape:export-ydpi="450" />
    <path
       inkscape:connector-curvature="0"
       style="fill:#008fa6;fill-opacity:1;stroke-width:0.25430301"
       d="m 108.12843,260.86207 a 8.8225459,9.4239456 0 1 0 8.82252,9.42393 8.8484726,9.4516396 0 0 0 -8.82252,-9.42393 z m 0,2.82717 a 2.6467613,2.8271811 0 1 1 -2.64676,2.82718 2.6556414,2.8366666 0 0 1 2.64676,-2.82718 z m 0,13.61036 a 6.4271541,6.8652692 0 0 1 -5.29352,-3.01748 c 0.0424,-1.88479 3.52898,-2.92234 5.29352,-2.92234 1.76445,0 5.25108,1.03755 5.29352,2.92234 a 6.4378602,6.8767054 0 0 1 -5.29352,3.01748 z"
       id="path86-1-1-3-6-5-1-1-2-0-7"
       inkscape:export-filename="C:\Users\SOPORTETI\Desktop\Imagenes Crowd\comunidad crowd.png"
       inkscape:export-xdpi="450"
       inkscape:export-ydpi="450" />
    <ellipse
       style="opacity:1;fill:#000000;fill-opacity:0;fill-rule:nonzero;stroke:#000000;stroke-width:0.08912661;stroke-linecap:round;stroke-miterlimit:4;stroke-dasharray:none;stroke-opacity:0"
       id="path3381-5-4-4"
       cx="107.58565"
       cy="269.87747"
       rx="11.960907"
       ry="12.305413"
       inkscape:export-filename="C:\Users\SOPORTETI\Desktop\Imagenes Crowd\comunidad crowd.png"
       inkscape:export-xdpi="450"
       inkscape:export-ydpi="450" />
    <rect
       style="fill:#3f3d56;stroke-width:0.13838594"
       x="147.83382"
       y="246.47285"
       width="17.187769"
       height="0.3748804"
       id="rect26-3-4-8"
       transform="matrix(0.99999594,0.00284803,-0.00614215,0.99998114,0,0)"
       inkscape:export-filename="C:\Users\SOPORTETI\Desktop\Imagenes Crowd\comunidad crowd.png"
       inkscape:export-xdpi="450"
       inkscape:export-ydpi="450" />
    <path
       inkscape:connector-curvature="0"
       style="fill:#3f3d56;stroke-width:0.23924924"
       d="m 173.32902,238.74419 c -0.12994,-0.44872 -0.27028,-0.90172 -0.4168,-1.34665 l 0.46233,-0.14369 c 0.14841,0.45012 0.29043,0.90854 0.42201,1.36256 z"
       id="path16-4-7"
       inkscape:export-filename="C:\Users\SOPORTETI\Desktop\Imagenes Crowd\comunidad crowd.png"
       inkscape:export-xdpi="450"
       inkscape:export-ydpi="450" />
    <ellipse
       style="fill:#f3a100;stroke-width:0.23924924"
       cx="175.58479"
       cy="252.1469"
       rx="8.0877132"
       ry="0.5890457"
       id="ellipse22-02"
       inkscape:export-filename="C:\Users\SOPORTETI\Desktop\Imagenes Crowd\comunidad crowd.png"
       inkscape:export-xdpi="450"
       inkscape:export-ydpi="450" />
    <path
       inkscape:connector-curvature="0"
       style="fill:#3f3d56;stroke-width:0.23924924"
       d="m 175.58473,251.79366 a 4.4888262,4.3590839 0 1 1 4.48888,-4.35916 4.4939539,4.3640633 0 0 1 -4.48888,4.35916 z m 0,-8.24665 a 4.0032591,3.8875511 0 1 0 4.0033,3.88751 4.0078719,3.8920309 0 0 0 -4.0033,-3.88752 z"
       id="path42-7-84"
       inkscape:export-filename="C:\Users\SOPORTETI\Desktop\Imagenes Crowd\comunidad crowd.png"
       inkscape:export-xdpi="450"
       inkscape:export-ydpi="450" />
    <ellipse
       style="opacity:1;fill:#ffffff;fill-opacity:1;fill-rule:nonzero;stroke:#ffffff;stroke-width:0.10840242;stroke-linecap:round;stroke-miterlimit:4;stroke-dasharray:none;stroke-opacity:1"
       id="path3403-5-6-6-0-9"
       cx="177.60112"
       cy="249.32866"
       rx="11.242353"
       ry="12.936851"
       inkscape:export-filename="C:\Users\SOPORTETI\Desktop\Imagenes Crowd\comunidad crowd.png"
       inkscape:export-xdpi="450"
       inkscape:export-ydpi="450" />
    <path
       inkscape:connector-curvature="0"
       style="fill:#3f3d56;stroke-width:0.23924924"
       d="m 175.1174,243.6748 c -0.13002,-0.44875 -0.27136,-0.90106 -0.42013,-1.3444 l 0.46164,-0.1462 c 0.15079,0.44946 0.2941,0.90797 0.42582,1.3628 z"
       id="path10-1-38"
       inkscape:export-filename="C:\Users\SOPORTETI\Desktop\Imagenes Crowd\comunidad crowd.png"
       inkscape:export-xdpi="450"
       inkscape:export-ydpi="450" />
    <ellipse
       style="fill:#f3a100;stroke-width:0.23924924"
       cx="174.87256"
       cy="249.56157"
       rx="8.0877132"
       ry="0.5890457"
       id="ellipse20-5-5"
       inkscape:export-filename="C:\Users\SOPORTETI\Desktop\Imagenes Crowd\comunidad crowd.png"
       inkscape:export-xdpi="450"
       inkscape:export-ydpi="450" />
    <path
       inkscape:connector-curvature="0"
       style="fill:#3f3d56;stroke-width:0.23924924"
       d="m 174.87248,249.20828 a 4.4888262,4.3590839 0 1 1 4.48891,-4.35916 4.4939247,4.364035 0 0 1 -4.48891,4.35916 z m 0,-8.24665 a 4.0032591,3.8875511 0 1 0 4.00334,3.88751 4.007782,3.8919435 0 0 0 -4.00334,-3.88751 z"
       id="path38-9-1"
       inkscape:export-filename="C:\Users\SOPORTETI\Desktop\Imagenes Crowd\comunidad crowd.png"
       inkscape:export-xdpi="450"
       inkscape:export-ydpi="450" />
    <ellipse
       style="opacity:1;fill:#ffffff;fill-opacity:1;fill-rule:nonzero;stroke:#ffffff;stroke-width:0.10840242;stroke-linecap:round;stroke-miterlimit:4;stroke-dasharray:none;stroke-opacity:1"
       id="path3403-5-6-66-4"
       cx="175.99243"
       cy="246.00925"
       rx="11.242353"
       ry="12.936851"
       inkscape:export-filename="C:\Users\SOPORTETI\Desktop\Imagenes Crowd\comunidad crowd.png"
       inkscape:export-xdpi="450"
       inkscape:export-ydpi="450" />
    <path
       inkscape:connector-curvature="0"
       style="fill:#3f3d56;stroke-width:0.23924924"
       d="m 175.96741,245.71373 c -0.27231,-0.39162 -0.54,-0.79363 -0.79569,-1.19493 l 0.41301,-0.24822 c 0.25226,0.39625 0.51639,0.79296 0.78502,1.17932 z"
       id="path6-6-7-1"
       inkscape:export-filename="C:\Users\SOPORTETI\Desktop\Imagenes Crowd\comunidad crowd.png"
       inkscape:export-xdpi="450"
       inkscape:export-ydpi="450" />
    <ellipse
       style="fill:#f3a100;stroke-width:0.23924924"
       cx="175.68347"
       cy="250.97708"
       rx="8.0877132"
       ry="0.5890457"
       id="ellipse18-6-7-12"
       inkscape:export-filename="C:\Users\SOPORTETI\Desktop\Imagenes Crowd\comunidad crowd.png"
       inkscape:export-xdpi="450"
       inkscape:export-ydpi="450" />
    <path
       inkscape:connector-curvature="0"
       style="fill:#3f3d56;stroke-width:0.23924924"
       d="m 175.68347,250.62386 a 4.4888894,4.3591452 0 1 1 4.48879,-4.35916 4.4939563,4.3640656 0 0 1 -4.48879,4.35916 z m 0,-8.24675 a 4.003322,3.8876125 0 1 0 4.00322,3.88759 4.0079084,3.8920662 0 0 0 -4.00322,-3.88759 z"
       id="path34-2-8-2-3"
       inkscape:export-filename="C:\Users\SOPORTETI\Desktop\Imagenes Crowd\comunidad crowd.png"
       inkscape:export-xdpi="450"
       inkscape:export-ydpi="450" />
    <ellipse
       style="opacity:1;fill:#00ff00;fill-opacity:0;fill-rule:nonzero;stroke:#000000;stroke-width:0.10590018;stroke-linecap:round;stroke-miterlimit:4;stroke-dasharray:none;stroke-opacity:0"
       id="path3383-2-8-3"
       cx="172.66821"
       cy="245.97427"
       rx="9.1586571"
       ry="10.327179"
       inkscape:export-filename="C:\Users\SOPORTETI\Desktop\Imagenes Crowd\comunidad crowd.png"
       inkscape:export-xdpi="450"
       inkscape:export-ydpi="450" />
    <ellipse
       style="opacity:1;fill:#ffffff;fill-opacity:1;fill-rule:nonzero;stroke:#ffffff;stroke-width:0.10840242;stroke-linecap:round;stroke-miterlimit:4;stroke-dasharray:none;stroke-opacity:1"
       id="path3403-3-1-2"
       cx="175.63574"
       cy="244.09663"
       rx="11.242353"
       ry="12.936851"
       inkscape:export-filename="C:\Users\SOPORTETI\Desktop\Imagenes Crowd\comunidad crowd.png"
       inkscape:export-xdpi="450"
       inkscape:export-ydpi="450" />
    <rect
       style="fill:#a3ca64;fill-opacity:1;stroke-width:0.05109388"
       y="235.38232"
       x="161.18518"
       height="4.1967459"
       width="5.3153439"
       data-name="Rectangle 324"
       id="Rectangle_324-5-2-7-4-0-6-9-4-9-7"
       inkscape:export-filename="C:\Users\SOPORTETI\Desktop\Imagenes Crowd\comunidad crowd.png"
       inkscape:export-xdpi="450"
       inkscape:export-ydpi="450" />
    <rect
       style="fill:#ffffff;stroke-width:0.05109388"
       y="236.5015"
       x="161.84962"
       height="0.27978653"
       width="3.9864955"
       data-name="Rectangle 325"
       id="Rectangle_325-65-8-8-0-7-6-7-5-8-9"
       inkscape:export-filename="C:\Users\SOPORTETI\Desktop\Imagenes Crowd\comunidad crowd.png"
       inkscape:export-xdpi="450"
       inkscape:export-ydpi="450" />
    <rect
       style="fill:#ffffff;stroke-width:0.05109388"
       y="237.34082"
       x="161.84962"
       height="0.27978653"
       width="3.9864955"
       data-name="Rectangle 326"
       id="Rectangle_326-0-6-6-8-1-0-9-5-1-35"
       inkscape:export-filename="C:\Users\SOPORTETI\Desktop\Imagenes Crowd\comunidad crowd.png"
       inkscape:export-xdpi="450"
       inkscape:export-ydpi="450" />
    <rect
       style="fill:#ffffff;stroke-width:0.05109388"
       y="238.18016"
       x="161.84962"
       height="0.27978653"
       width="3.9864955"
       data-name="Rectangle 327"
       id="Rectangle_327-0-9-2-5-5-5-2-3-7-9"
       inkscape:export-filename="C:\Users\SOPORTETI\Desktop\Imagenes Crowd\comunidad crowd.png"
       inkscape:export-xdpi="450"
       inkscape:export-ydpi="450" />
    <path
       inkscape:connector-curvature="0"
       style="fill:#008fa6;fill-opacity:1;stroke-width:0.25430301"
       d="m 175.68347,234.18633 a 8.8225459,9.4239456 0 1 0 8.82253,9.42393 8.8484726,9.4516396 0 0 0 -8.82253,-9.42393 z m 0,2.82717 a 2.6467613,2.8271811 0 1 1 -2.64675,2.82718 2.6556414,2.8366666 0 0 1 2.64675,-2.82718 z m 0,13.61036 a 6.4271541,6.8652692 0 0 1 -5.29352,-3.01749 c 0.0424,-1.88479 3.52898,-2.92234 5.29352,-2.92234 1.76446,0 5.25108,1.03755 5.29353,2.92234 a 6.4378602,6.8767054 0 0 1 -5.29353,3.01749 z"
       id="path86-1-1-3-6-5-1-1-2-0-0"
       inkscape:export-filename="C:\Users\SOPORTETI\Desktop\Imagenes Crowd\comunidad crowd.png"
       inkscape:export-xdpi="450"
       inkscape:export-ydpi="450" />
    <ellipse
       style="opacity:1;fill:#000000;fill-opacity:0;fill-rule:nonzero;stroke:#000000;stroke-width:0.08912661;stroke-linecap:round;stroke-miterlimit:4;stroke-dasharray:none;stroke-opacity:0"
       id="path3381-5-4-9"
       cx="175.14075"
       cy="243.20174"
       rx="11.960907"
       ry="12.305413"
       inkscape:export-filename="C:\Users\SOPORTETI\Desktop\Imagenes Crowd\comunidad crowd.png"
       inkscape:export-xdpi="450"
       inkscape:export-ydpi="450" />
    <rect
       style="fill:#3f3d56;stroke-width:0.20852508"
       x="208.2428"
       y="39.260151"
       width="29.347267"
       height="0.41974622"
       transform="matrix(0.72707714,0.68655578,-0.59780522,0.80164139,0,0)"
       id="rect24-5-9-1"
       inkscape:export-filename="C:\Users\SOPORTETI\Desktop\Imagenes Crowd\comunidad crowd.png"
       inkscape:export-xdpi="450"
       inkscape:export-ydpi="450" />
    <path
       d="m 192.75861,214.96375 h -0.0291 l 0.11499,0.2467 a 7.1016812,6.7861427 16.35184 0 0 0.47216,1.01271 l 3.37375,7.23625 a 1.3433421,1.2836553 16.35184 0 0 1.2394,0.78516 l 4.28712,0.0389 a 1.3433351,1.2836487 16.351825 0 0 1.2492,-0.84963 l 2.70747,-7.72045 a 7.0908739,6.7758155 16.351816 0 0 0.2316,-0.66036 l 0.0919,-0.26216 h -0.0212 a 7.1438255,6.8264142 16.351848 1 0 -13.71687,0.17223 z"
       id="path56-7-8-5"
       inkscape:connector-curvature="0"
       style="fill:#91cfd9;fill-opacity:1;stroke-width:0.06133935"
       inkscape:export-filename="C:\Users\SOPORTETI\Desktop\Imagenes Crowd\comunidad crowd.png"
       inkscape:export-xdpi="450"
       inkscape:export-ydpi="450" />
    <path
       d="m 202.55972,224.73943 a 1.4619055,1.3969507 16.351822 0 1 -0.22258,0.0145 l -4.48127,-0.0408 a 1.4665244,1.4013645 16.351817 0 1 -1.35337,-0.85739 l -3.52648,-7.56383 a 7.4706493,7.1387176 16.351863 0 1 -0.49544,-1.06314 l -0.11477,-0.33643 a 7.5315129,7.196876 16.351833 0 1 7.06495,-9.16047 l 0.003,0.12038 a 7.4087054,7.0795251 16.351838 0 0 -6.92313,9.08258 l 0.0869,0.2515 a 7.4220333,7.0922609 16.351828 0 0 0.4913,1.05417 l 3.52876,7.56823 a 1.3409349,1.2813552 16.351838 0 0 1.23758,0.784 l 4.48124,0.0408 a 1.3432724,1.2835888 16.351842 0 0 1.24744,-0.84839 l 0.11864,0.0409 a 1.4696318,1.4043337 16.351815 0 1 -1.14157,0.91342 z"
       id="path58-0-6"
       inkscape:connector-curvature="0"
       style="fill:#f2f2f2;fill-opacity:1;stroke-width:0.06133935"
       inkscape:export-filename="C:\Users\SOPORTETI\Desktop\Imagenes Crowd\comunidad crowd.png"
       inkscape:export-xdpi="450"
       inkscape:export-ydpi="450" />
    <rect
       x="-178.85652"
       y="239.15891"
       width="7.5169158"
       height="0.16225906"
       transform="matrix(0.18915697,-0.98194686,0.98035908,0.19722089,0,0)"
       id="rect60-1-4-4"
       style="fill:#f2f2f2;fill-opacity:1;stroke-width:0.06134038"
       inkscape:export-filename="C:\Users\SOPORTETI\Desktop\Imagenes Crowd\comunidad crowd.png"
       inkscape:export-xdpi="450"
       inkscape:export-ydpi="450" />
    <rect
       x="145.90906"
       y="247.7478"
       width="0.16077204"
       height="7.5915308"
       transform="matrix(0.98349213,-0.18095089,0.21772538,0.97601007,0,0)"
       id="rect62-7-4-0"
       style="fill:#f2f2f2;fill-opacity:1;stroke-width:0.06136096"
       inkscape:export-filename="C:\Users\SOPORTETI\Desktop\Imagenes Crowd\comunidad crowd.png"
       inkscape:export-xdpi="450"
       inkscape:export-ydpi="450" />
    <path
       d="m 202.81872,228.35633 -5.74217,-0.0521 a 0.16235273,0.15513916 16.351837 0 1 -0.005,-0.31143 l 5.74218,0.0522 a 0.16233338,0.15512066 16.35182 1 1 0.005,0.31137 z"
       id="path64-6-4-8"
       inkscape:connector-curvature="0"
       style="fill:#91cfd9;fill-opacity:1;stroke-width:0.06133935"
       inkscape:export-filename="C:\Users\SOPORTETI\Desktop\Imagenes Crowd\comunidad crowd.png"
       inkscape:export-xdpi="450"
       inkscape:export-ydpi="450" />
    <path
       d="m 202.75994,227.18827 -5.74214,-0.0521 a 0.16233434,0.15512158 16.351828 1 1 -0.005,-0.31137 l 5.74211,0.0522 a 0.16233222,0.15511954 16.351822 1 1 0.005,0.31135 z"
       id="path66-6-0-8"
       inkscape:connector-curvature="0"
       style="fill:#91cfd9;fill-opacity:1;stroke-width:0.06133935"
       inkscape:export-filename="C:\Users\SOPORTETI\Desktop\Imagenes Crowd\comunidad crowd.png"
       inkscape:export-xdpi="450"
       inkscape:export-ydpi="450" />
    <path
       d="m 202.70112,226.02019 -5.7421,-0.0522 a 0.16233222,0.15511954 16.351822 0 1 -0.005,-0.31136 l 5.74217,0.0522 a 0.16233222,0.15511954 16.351822 0 1 0.005,0.31134 z"
       id="path68-6-7-5"
       inkscape:connector-curvature="0"
       style="fill:#91cfd9;fill-opacity:1;stroke-width:0.06133935"
       inkscape:export-filename="C:\Users\SOPORTETI\Desktop\Imagenes Crowd\comunidad crowd.png"
       inkscape:export-xdpi="450"
       inkscape:export-ydpi="450" />
    <path
       d="m 199.96511,229.44083 c 1.13899,0.0103 2.05275,-0.5923 2.04086,-1.34606 l -4.12464,-0.0374 c 0.0119,0.75372 0.94477,1.37313 2.08378,1.38349 z"
       id="path70-3-4-2"
       inkscape:connector-curvature="0"
       style="fill:#91cfd9;fill-opacity:1;stroke-width:0.06133935"
       inkscape:export-filename="C:\Users\SOPORTETI\Desktop\Imagenes Crowd\comunidad crowd.png"
       inkscape:export-xdpi="450"
       inkscape:export-ydpi="450" />
    <path
       d="m 199.35456,214.27843 c -0.245,-0.003 -0.47467,-0.15685 -0.60443,-0.26382 -0.0426,-0.0351 -0.0844,-0.0718 -0.12645,-0.10863 -0.15282,-0.13397 -0.2971,-0.26053 -0.47608,-0.31197 -0.39504,-0.11368 -0.78569,0.17719 -1.11545,0.47676 l -0.11263,-0.11445 c 0.3626,-0.32943 0.797,-0.64771 1.27089,-0.51141 0.2153,0.0619 0.38067,0.20689 0.54059,0.34716 0.0407,0.0357 0.0813,0.0713 0.12255,0.10534 0.13499,0.11124 0.3958,0.28559 0.62802,0.20442 a 0.79050828,0.75538484 16.351826 0 0 0.25216,-0.1806 1.5108021,1.4436749 16.351835 0 1 0.17507,-0.14705 0.79497358,0.75965167 16.351819 0 1 0.87792,-0.003 1.570267,1.5004977 16.351838 0 1 0.13726,0.10257 c 0.0857,0.0689 0.16655,0.13402 0.25948,0.14875 0.1374,0.022 0.26249,-0.0693 0.39507,-0.16579 0.13672,-0.0996 0.278,-0.20257 0.45809,-0.20729 0.006,0 0.0117,0 0.0176,0 0.32241,0.003 0.52635,0.31827 0.65243,0.5573 l -0.14392,0.0677 c -0.17137,-0.32491 -0.33675,-0.47523 -0.51785,-0.46919 -0.12902,0.003 -0.24448,0.0875 -0.36674,0.1766 -0.15326,0.11173 -0.31189,0.22724 -0.51726,0.19447 -0.13741,-0.0217 -0.23987,-0.10425 -0.33888,-0.18397 a 1.4305095,1.3669498 16.351832 0 0 -0.12294,-0.0922 0.63786334,0.60952211 16.351827 0 0 -0.69514,0.003 1.3702546,1.3093721 16.351834 0 0 -0.156,0.13179 0.92220324,0.8812283 16.351818 0 1 -0.30776,0.2142 0.53361931,0.50990976 16.351782 0 1 -0.18567,0.03 z"
       id="path72-0-7-9"
       inkscape:connector-curvature="0"
       style="fill:#f2f2f2;fill-opacity:1;stroke-width:0.06133935"
       inkscape:export-filename="C:\Users\SOPORTETI\Desktop\Imagenes Crowd\comunidad crowd.png"
       inkscape:export-xdpi="450"
       inkscape:export-ydpi="450" />
  </g>
</svg>
